[
"file:///var/www/blog/src/vendor/laravel/framework/src/Illuminate/Foundation/Validation/ValidatesRequests.php"
,
"file:///var/www/blog/src/vendor/laravel/framework/src/Illuminate/Contracts/Auth/CanResetPassword.php"
,
"file:///var/www/blog/src/vendor/psy/psysh/test/fixtures/default/.config/psysh/config.php"
,
"file:///var/www/blog/src/node_modules/admin-lte/plugins/datatables/extensions/Scroller/examples/data/ssp.php"
,
"file:///var/www/blog/src/vendor/phpspec/prophecy/src/Prophecy/Doubler/Generator/ClassCreator.php"
,
"file:///var/www/blog/src/vendor/laravel/framework/src/Illuminate/Contracts/Cache/Lock.php"
,
"file:///var/www/blog/src/vendor/laravel/framework/src/Illuminate/Foundation/Bus/PendingChain.php"
,
"file:///var/www/blog/src/vendor/laravel/framework/src/Illuminate/View/Compilers/CompilerInterface.php"
,
"file:///var/www/blog/src/vendor/mockery/mockery/library/Mockery/Generator/StringManipulation/Pass/RemoveBuiltinMethodsThatAreFinalPass.php"
,
"file:///var/www/blog/src/vendor/laravel/framework/src/Illuminate/Mail/resources/views/html/promotion/button.blade.php"
,
"file:///var/www/blog/src/vendor/swiftmailer/swiftmailer/lib/classes/Swift/Transport/Esmtp/Auth/LoginAuthenticator.php"
,
"file:///var/www/blog/src/vendor/laravel/framework/src/Illuminate/Contracts/Encryption/Encrypter.php"
,
"file:///var/www/blog/src/vendor/laravel/framework/src/Illuminate/Foundation/Http/Middleware/CheckForMaintenanceMode.php"
,
"file:///var/www/blog/src/vendor/laravel/framework/src/Illuminate/Mail/Transport/SesTransport.php"
,
"file:///var/www/blog/src/vendor/laravel/framework/src/Illuminate/Foundation/Console/ConfigCacheCommand.php"
,
"file:///var/www/blog/src/vendor/laravel/framework/src/Illuminate/Foundation/Auth/Access/AuthorizesRequests.php"
,
"file:///var/www/blog/src/vendor/phpspec/prophecy/src/Prophecy/Doubler/Generator/TypeHintReference.php"
,
"file:///var/www/blog/src/vendor/laravel/framework/src/Illuminate/Database/Query/Processors/Processor.php"
,
"file:///var/www/blog/src/vendor/laravel/framework/src/Illuminate/Database/Events/TransactionBeginning.php"
,
"file:///var/www/blog/src/vendor/laravel/framework/src/Illuminate/Foundation/Console/ExceptionMakeCommand.php"
,
"file:///var/www/blog/src/vendor/swiftmailer/swiftmailer/tests/acceptance/Swift/Transport/StreamBuffer/TlsSocketAcceptanceTest.php"
,
"file:///var/www/blog/src/vendor/laravel/framework/src/Illuminate/Support/Facades/Event.php"
,
"file:///var/www/blog/src/vendor/laravel/framework/src/Illuminate/Queue/Jobs/DatabaseJob.php"
,
"file:///var/www/blog/src/vendor/laravel/framework/src/Illuminate/Database/Schema/Builder.php"
,
"file:///var/www/blog/src/vendor/laravel/framework/src/Illuminate/Foundation/Console/RuleMakeCommand.php"
,
"file:///var/www/blog/src/vendor/nikic/php-parser/lib/PhpParser/Node/Expr/BinaryOp/BitwiseAnd.php"
,
"file:///var/www/blog/src/vendor/phpspec/prophecy/src/Prophecy/Argument/Token/LogicalNotToken.php"
,
"file:///var/www/blog/src/vendor/laravel/framework/src/Illuminate/Foundation/Console/ServeCommand.php"
,
"file:///var/www/blog/src/vendor/laravel/framework/src/Illuminate/Database/Connectors/SQLiteConnector.php"
,
"file:///var/www/blog/src/vendor/laravel/framework/src/Illuminate/Http/Testing/FileFactory.php"
,
"file:///var/www/blog/src/vendor/laravel/framework/src/Illuminate/Queue/Connectors/DatabaseConnector.php"
,
"file:///var/www/blog/src/vendor/laravel/framework/src/Illuminate/Contracts/Http/Kernel.php"
,
"file:///var/www/blog/src/vendor/laravel/framework/src/Illuminate/Foundation/Console/EnvironmentCommand.php"
,
"file:///var/www/blog/src/vendor/laravel/framework/src/Illuminate/Foundation/Providers/FoundationServiceProvider.php"
,
"file:///var/www/blog/src/vendor/swiftmailer/swiftmailer/tests/unit/Swift/Plugins/Loggers/EchoLoggerTest.php"
,
"file:///var/www/blog/src/vendor/phpdocumentor/reflection-docblock/src/DocBlock/Tags/Factory/Strategy.php"
,
"file:///var/www/blog/src/vendor/mockery/mockery/library/Mockery/Generator/StringManipulation/Pass/MethodDefinitionPass.php"
,
"file:///var/www/blog/src/vendor/swiftmailer/swiftmailer/tests/unit/Swift/Plugins/Reporters/HitReporterTest.php"
,
"file:///var/www/blog/src/vendor/laravel/framework/src/Illuminate/Contracts/Validation/Factory.php"
,
"file:///var/www/blog/src/vendor/phpunit/phpunit/tests/Regression/GitHub/2137/Issue2137Test.php"
,
"file:///var/www/blog/src/vendor/phpspec/prophecy/src/Prophecy/Argument/Token/StringContainsToken.php"
,
"file:///var/www/blog/src/vendor/laravel/framework/src/Illuminate/Support/Facades/Notification.php"
,
"file:///var/www/blog/src/vendor/laravel/framework/src/Illuminate/Foundation/Console/RouteCacheCommand.php"
,
"file:///var/www/blog/src/vendor/mockery/mockery/library/Mockery/Generator/StringManipulation/Pass/ClassNamePass.php"
,
"file:///var/www/blog/src/vendor/laravel/framework/src/Illuminate/Support/Facades/URL.php"
,
"file:///var/www/blog/src/vendor/laravel/framework/src/Illuminate/View/Compilers/Concerns/CompilesStacks.php"
,
"file:///var/www/blog/src/vendor/kris/laravel-form-builder/src/Kris/LaravelFormBuilder/Fields/EntityType.php"
,
"file:///var/www/blog/src/vendor/laravel/framework/src/Illuminate/Support/Facades/Hash.php"
,
"file:///var/www/blog/src/vendor/mockery/mockery/library/Mockery/Generator/StringManipulation/Pass/ConstantsPass.php"
,
"file:///var/www/blog/src/vendor/maximebf/debugbar/src/DebugBar/DataCollector/PDO/TracedStatement.php"
,
"file:///var/www/blog/src/vendor/laravel/framework/src/Illuminate/Notifications/Events/NotificationSending.php"
,
"file:///var/www/blog/src/vendor/symfony/http-foundation/Tests/Session/Storage/Handler/Fixtures/read_only.php"
,
"file:///var/www/blog/src/vendor/nikic/php-parser/lib/PhpParser/Node/Scalar/MagicConst/File.php"
,
"file:///var/www/blog/src/vendor/swiftmailer/swiftmailer/lib/classes/Swift/Plugins/Pop/Pop3Exception.php"
,
"file:///var/www/blog/src/vendor/nikic/php-parser/lib/PhpParser/Node/Expr/AssignOp/Mod.php"
,
"file:///var/www/blog/src/vendor/kris/laravel-form-builder/src/Kris/LaravelFormBuilder/Filters/FilterResolver.php"
,
"file:///var/www/blog/src/vendor/laravel/framework/src/Illuminate/Foundation/Support/Providers/EventServiceProvider.php"
,
"file:///var/www/blog/src/vendor/laravel/framework/src/Illuminate/Foundation/Testing/Concerns/InteractsWithAuthentication.php"
,
"file:///var/www/blog/src/vendor/kris/laravel-form-builder/src/Kris/LaravelFormBuilder/Fields/ButtonGroupType.php"
,
"file:///var/www/blog/src/vendor/mockery/mockery/tests/Mockery/Generator/StringManipulation/Pass/CallTypeHintPassTest.php"
,
"file:///var/www/blog/src/vendor/laravel/framework/src/Illuminate/Contracts/Auth/SupportsBasicAuth.php"
,
"file:///var/www/blog/src/vendor/laravel/framework/src/Illuminate/Redis/Connections/PredisConnection.php"
,
"file:///var/www/blog/src/vendor/phpspec/prophecy/src/Prophecy/Exception/Doubler/DoublerException.php"
,
"file:///var/www/blog/src/vendor/laravel/framework/src/Illuminate/Foundation/Console/RequestMakeCommand.php"
,
"file:///var/www/blog/src/vendor/laravel/framework/src/Illuminate/Notifications/Channels/MailChannel.php"
,
"file:///var/www/blog/src/vendor/symfony/console/Tests/Fixtures/Style/SymfonyStyle/command/command_10.php"
,
"file:///var/www/blog/src/vendor/symfony/console/Tests/Fixtures/Style/SymfonyStyle/command/command_11.php"
,
"file:///var/www/blog/src/vendor/symfony/console/Tests/Fixtures/Style/SymfonyStyle/command/command_12.php"
,
"file:///var/www/blog/src/vendor/symfony/console/Tests/Fixtures/Style/SymfonyStyle/command/command_13.php"
,
"file:///var/www/blog/src/vendor/laravel/framework/src/Illuminate/Support/Facades/Route.php"
,
"file:///var/www/blog/src/vendor/symfony/console/Tests/Fixtures/Style/SymfonyStyle/command/command_14.php"
,
"file:///var/www/blog/src/vendor/symfony/console/Tests/Fixtures/Style/SymfonyStyle/command/command_15.php"
,
"file:///var/www/blog/src/vendor/symfony/http-kernel/Tests/Fixtures/ExtensionPresentBundle/Command/BarCommand.php"
,
"file:///var/www/blog/src/vendor/symfony/console/Tests/Fixtures/Style/SymfonyStyle/command/command_16.php"
,
"file:///var/www/blog/src/vendor/symfony/console/Tests/Fixtures/Style/SymfonyStyle/command/command_17.php"
,
"file:///var/www/blog/src/vendor/laravel/framework/src/Illuminate/Auth/Middleware/AuthenticateWithBasicAuth.php"
,
"file:///var/www/blog/src/vendor/swiftmailer/swiftmailer/lib/classes/Swift/Mime/ContentEncoder/QpContentEncoderProxy.php"
,
"file:///var/www/blog/src/vendor/laravel/framework/src/Illuminate/Redis/Connections/Connection.php"
,
"file:///var/www/blog/src/vendor/nikic/php-parser/lib/PhpParser/Node/Expr/AssignOp/ShiftLeft.php"
,
"file:///var/www/blog/src/vendor/nikic/php-parser/lib/PhpParser/Node/Scalar/MagicConst/Class_.php"
,
"file:///var/www/blog/src/vendor/phpspec/prophecy/src/Prophecy/Exception/Doubler/MethodNotFoundException.php"
,
"file:///var/www/blog/src/vendor/phpspec/prophecy/src/Prophecy/Exception/Prediction/UnexpectedCallsCountException.php"
,
"file:///var/www/blog/src/vendor/symfony/http-foundation/Tests/Session/Storage/Handler/Fixtures/with_cookie.php"
,
"file:///var/www/blog/src/vendor/laravel/framework/src/Illuminate/Foundation/Console/QueuedCommand.php"
,
"file:///var/www/blog/src/vendor/laravel/framework/src/Illuminate/Database/Connectors/ConnectionFactory.php"
,
"file:///var/www/blog/src/vendor/laravel/framework/src/Illuminate/Auth/Events/Authenticated.php"
,
"file:///var/www/blog/src/vendor/laravel/framework/src/Illuminate/Database/Events/QueryExecuted.php"
,
"file:///var/www/blog/src/vendor/swiftmailer/swiftmailer/lib/classes/Swift/Transport/Esmtp/Auth/CramMd5Authenticator.php"
,
"file:///var/www/blog/src/vendor/laravel/framework/src/Illuminate/Foundation/Events/Dispatchable.php"
,
"file:///var/www/blog/src/vendor/laravel/framework/src/Illuminate/Http/Resources/Json/AnonymousResourceCollection.php"
,
"file:///var/www/blog/src/vendor/laravel/framework/src/Illuminate/View/Compilers/Concerns/CompilesComponents.php"
,
"file:///var/www/blog/src/vendor/nikic/php-parser/lib/PhpParser/Node/Expr/BinaryOp/ShiftLeft.php"
,
"file:///var/www/blog/src/vendor/laravel/framework/src/Illuminate/View/Compilers/Concerns/CompilesRawPhp.php"
,
"file:///var/www/blog/src/vendor/laravel/framework/src/Illuminate/Support/Facades/Schema.php"
,
"file:///var/www/blog/src/vendor/mockery/mockery/library/Mockery/Generator/StringManipulation/Pass/Pass.php"
,
"file:///var/www/blog/src/vendor/laravel/framework/src/Illuminate/Queue/Capsule/Manager.php"
,
"file:///var/www/blog/src/vendor/laravel/framework/src/Illuminate/Support/Testing/Fakes/NotificationFake.php"
,
"file:///var/www/blog/src/vendor/laravel/framework/src/Illuminate/Contracts/Filesystem/Factory.php"
,
"file:///var/www/blog/src/vendor/swiftmailer/swiftmailer/lib/classes/Swift/Mime/Headers/OpenDKIMHeader.php"
,
"file:///var/www/blog/src/vendor/laravel/framework/src/Illuminate/Queue/Connectors/BeanstalkdConnector.php"
,
"file:///var/www/blog/src/vendor/laravel/framework/src/Illuminate/Database/Console/Seeds/SeederMakeCommand.php"
,
"file:///var/www/blog/src/vendor/laravel/framework/src/Illuminate/Queue/Jobs/BeanstalkdJob.php"
,
"file:///var/www/blog/src/vendor/laravel/framework/src/Illuminate/Queue/Events/JobProcessed.php"
,
"file:///var/www/blog/src/vendor/phpspec/prophecy/src/Prophecy/Argument/Token/ArrayEveryEntryToken.php"
,
"file:///var/www/blog/src/vendor/laravel/framework/src/Illuminate/Contracts/Notifications/Dispatcher.php"
,
"file:///var/www/blog/src/vendor/swiftmailer/swiftmailer/tests/unit/Swift/Mime/Headers/DateHeaderTest.php"
,
"file:///var/www/blog/src/vendor/laravel/framework/src/Illuminate/Foundation/Console/PackageDiscoverCommand.php"
,
"file:///var/www/blog/src/vendor/laravel/framework/src/Illuminate/Contracts/Auth/Authenticatable.php"
,
"file:///var/www/blog/src/vendor/nikic/php-parser/lib/PhpParser/Node/Expr/BinaryOp/BitwiseOr.php"
,
"file:///var/www/blog/src/vendor/laravel/framework/src/Illuminate/Database/Query/Grammars/SQLiteGrammar.php"
,
"file:///var/www/blog/src/vendor/laravel/framework/src/Illuminate/Database/Eloquent/SoftDeletes.php"
,
"file:///var/www/blog/src/vendor/laravel/framework/src/Illuminate/Foundation/Testing/Concerns/InteractsWithContainer.php"
,
"file:///var/www/blog/src/vendor/phpspec/prophecy/src/Prophecy/Doubler/Generator/Node/MethodNode.php"
,
"file:///var/www/blog/src/vendor/laravel/framework/src/Illuminate/Database/Eloquent/FactoryBuilder.php"
,
"file:///var/www/blog/src/vendor/laravel/framework/src/Illuminate/Foundation/Console/AppNameCommand.php"
,
"file:///var/www/blog/src/vendor/laravel/framework/src/Illuminate/Foundation/Support/Providers/RouteServiceProvider.php"
,
"file:///var/www/blog/src/vendor/laravel/framework/src/Illuminate/Database/Eloquent/QueueEntityResolver.php"
,
"file:///var/www/blog/src/vendor/laravel/framework/src/Illuminate/Foundation/Console/VendorPublishCommand.php"
,
"file:///var/www/blog/src/vendor/laravel/framework/src/Illuminate/Pagination/resources/views/simple-default.blade.php"
,
"file:///var/www/blog/src/vendor/nikic/php-parser/lib/PhpParser/Node/Expr/BinaryOp/Greater.php"
,
"file:///var/www/blog/src/vendor/laravel/framework/src/Illuminate/Auth/Passwords/TokenRepositoryInterface.php"
,
"file:///var/www/blog/src/vendor/nikic/php-parser/lib/PhpParser/Node/Expr/AssignOp/BitwiseOr.php"
,
"file:///var/www/blog/src/vendor/laravel/framework/src/Illuminate/Support/Facades/Mail.php"
,
"file:///var/www/blog/src/vendor/mockery/mockery/library/Mockery/Generator/StringManipulation/Pass/RemoveDestructorPass.php"
,
"file:///var/www/blog/src/vendor/laravel/framework/src/Illuminate/Routing/Console/MiddlewareMakeCommand.php"
,
"file:///var/www/blog/src/vendor/laravel/framework/src/Illuminate/Queue/Jobs/JobName.php"
,
"file:///var/www/blog/src/vendor/laravel/framework/src/Illuminate/Contracts/Debug/ExceptionHandler.php"
,
"file:///var/www/blog/src/vendor/mockery/mockery/tests/Mockery/Generator/StringManipulation/Pass/ConstantsPassTest.php"
,
"file:///var/www/blog/src/vendor/symfony/http-foundation/Tests/Session/Storage/Handler/NativeFileSessionHandlerTest.php"
,
"file:///var/www/blog/src/vendor/laravel/framework/src/Illuminate/Database/Schema/MySqlBuilder.php"
,
"file:///var/www/blog/src/vendor/phpspec/prophecy/src/Prophecy/Argument/Token/ApproximateValueToken.php"
,
"file:///var/www/blog/src/vendor/mockery/mockery/tests/Mockery/Generator/StringManipulation/Pass/ClassNamePassTest.php"
,
"file:///var/www/blog/src/vendor/laravel/framework/src/Illuminate/Foundation/Console/Presets/Preset.php"
,
"file:///var/www/blog/src/vendor/laravel/framework/src/Illuminate/Contracts/Translation/Loader.php"
,
"file:///var/www/blog/src/vendor/nikic/php-parser/lib/PhpParser/Node/Expr/BinaryOp/BooleanOr.php"
,
"file:///var/www/blog/src/vendor/laravel/framework/src/Illuminate/Foundation/Console/OptimizeCommand.php"
,
"file:///var/www/blog/src/vendor/nikic/php-parser/lib/PhpParser/Node/Expr/AssignOp/Mul.php"
,
"file:///var/www/blog/src/vendor/phpspec/prophecy/src/Prophecy/Exception/Prophecy/MethodProphecyException.php"
,
"file:///var/www/blog/src/vendor/phpspec/prophecy/src/Prophecy/Exception/Call/UnexpectedCallException.php"
,
"file:///var/www/blog/src/vendor/laravel/framework/src/Illuminate/Database/Eloquent/Concerns/HasRelationships.php"
,
"file:///var/www/blog/src/vendor/nikic/php-parser/lib/PhpParser/Node/Expr/BinaryOp/Plus.php"
,
"file:///var/www/blog/src/vendor/maximebf/debugbar/src/DebugBar/Bridge/Twig/TwigCollector.php"
,
"file:///var/www/blog/src/vendor/laravel/framework/src/Illuminate/Contracts/Cookie/QueueingFactory.php"
,
"file:///var/www/blog/src/vendor/laravel/framework/src/Illuminate/Contracts/Pagination/Paginator.php"
,
"file:///var/www/blog/src/vendor/swiftmailer/swiftmailer/tests/acceptance/Swift/ByteStream/FileByteStreamAcceptanceTest.php"
,
"file:///var/www/blog/src/vendor/laravel/framework/src/Illuminate/Database/Query/Expression.php"
,
"file:///var/www/blog/src/vendor/laravel/framework/src/Illuminate/Database/Events/StatementPrepared.php"
,
"file:///var/www/blog/src/vendor/phpspec/prophecy/src/Prophecy/Doubler/Generator/Node/ClassNode.php"
,
"file:///var/www/blog/src/vendor/laravel/framework/src/Illuminate/Contracts/Support/MessageProvider.php"
,
"file:///var/www/blog/src/vendor/laravel/framework/src/Illuminate/Contracts/Database/ModelIdentifier.php"
,
"file:///var/www/blog/src/vendor/laravel/framework/src/Illuminate/Contracts/Bus/QueueingDispatcher.php"
,
"file:///var/www/blog/src/vendor/kris/laravel-form-builder/src/Kris/LaravelFormBuilder/Filters/Collection/StripTags.php"
,
"file:///var/www/blog/src/vendor/nikic/php-parser/lib/PhpParser/Node/Expr/AssignOp/BitwiseXor.php"
,
"file:///var/www/blog/src/vendor/swiftmailer/swiftmailer/lib/classes/Swift/Mime/Headers/IdentificationHeader.php"
,
"file:///var/www/blog/src/vendor/laravel/framework/src/Illuminate/Queue/Events/JobProcessing.php"
,
"file:///var/www/blog/src/vendor/symfony/console/Tests/Fixtures/Style/SymfonyStyle/command/interactive_command_1.php"
,
"file:///var/www/blog/src/vendor/laravel/framework/src/Illuminate/Support/Facades/Response.php"
,
"file:///var/www/blog/src/vendor/nikic/php-parser/lib/PhpParser/Node/Scalar/MagicConst/Function_.php"
,
"file:///var/www/blog/src/vendor/mockery/mockery/library/Mockery/Generator/StringManipulation/Pass/MagicMethodTypeHintsPass.php"
,
"file:///var/www/blog/src/vendor/laravel/framework/src/Illuminate/Validation/Rules/NotIn.php"
,
"file:///var/www/blog/src/vendor/laravel/framework/src/Illuminate/View/Compilers/Concerns/CompilesTranslations.php"
,
"file:///var/www/blog/src/vendor/laravel/framework/src/Illuminate/Queue/Console/TableCommand.php"
,
"file:///var/www/blog/src/vendor/laravel/framework/src/Illuminate/Mail/resources/views/html/message.blade.php"
,
"file:///var/www/blog/src/vendor/swiftmailer/swiftmailer/lib/classes/Swift/Transport/Esmtp/Authenticator.php"
,
"file:///var/www/blog/src/vendor/laravel/framework/src/Illuminate/Contracts/Encryption/EncryptException.php"
,
"file:///var/www/blog/src/vendor/laravel/framework/src/Illuminate/Redis/Connections/PredisClusterConnection.php"
,
"file:///var/www/blog/src/vendor/laravel/framework/src/Illuminate/View/Concerns/ManagesStacks.php"
,
"file:///var/www/blog/src/vendor/laravel/framework/src/Illuminate/Database/Schema/SqlServerBuilder.php"
,
"file:///var/www/blog/src/vendor/laravel/framework/src/Illuminate/Foundation/Testing/Concerns/InteractsWithSession.php"
,
"file:///var/www/blog/src/vendor/nikic/php-parser/lib/PhpParser/Node/Expr/BinaryOp/Equal.php"
,
"file:///var/www/blog/src/vendor/laravel/framework/src/Illuminate/Auth/Passwords/PasswordBrokerManager.php"
,
"file:///var/www/blog/src/vendor/laravel/framework/src/Illuminate/Pagination/resources/views/semantic-ui.blade.php"
,
"file:///var/www/blog/src/vendor/laravel/framework/src/Illuminate/Database/Eloquent/JsonEncodingException.php"
,
"file:///var/www/blog/src/vendor/laravel/framework/src/Illuminate/Cache/Events/CacheHit.php"
,
"file:///var/www/blog/src/vendor/swiftmailer/swiftmailer/tests/unit/Swift/Transport/Esmtp/AuthHandlerTest.php"
,
"file:///var/www/blog/src/vendor/laravel/framework/src/Illuminate/Contracts/Broadcasting/ShouldBroadcast.php"
,
"file:///var/www/blog/src/vendor/laravel/framework/src/Illuminate/Foundation/Auth/AuthenticatesUsers.php"
,
"file:///var/www/blog/src/vendor/swiftmailer/swiftmailer/lib/classes/Swift/Transport/Esmtp/Auth/NTLMAuthenticator.php"
,
"file:///var/www/blog/src/vendor/laravel/framework/src/Illuminate/Contracts/Mail/Mailable.php"
,
"file:///var/www/blog/src/vendor/laravel/framework/src/Illuminate/Foundation/Testing/Concerns/InteractsWithDatabase.php"
,
"file:///var/www/blog/src/vendor/laravel/framework/src/Illuminate/Database/Eloquent/Relations/HasOneOrMany.php"
,
"file:///var/www/blog/src/vendor/laravel/framework/src/Illuminate/Support/Facades/App.php"
,
"file:///var/www/blog/src/vendor/laravel/framework/src/Illuminate/Database/Console/Migrations/BaseCommand.php"
,
"file:///var/www/blog/src/vendor/laravel/framework/src/Illuminate/Queue/Jobs/SqsJob.php"
,
"file:///var/www/blog/src/vendor/laravel/framework/src/Illuminate/Database/Console/Migrations/InstallCommand.php"
,
"file:///var/www/blog/src/vendor/laravel/framework/src/Illuminate/Database/Query/JoinClause.php"
,
"file:///var/www/blog/src/vendor/nikic/php-parser/lib/PhpParser/Node/Expr/BinaryOp/Pow.php"
,
"file:///var/www/blog/src/vendor/laravel/framework/src/Illuminate/Contracts/Pagination/LengthAwarePaginator.php"
,
"file:///var/www/blog/src/vendor/nikic/php-parser/lib/PhpParser/Node/Expr/Cast/String_.php"
,
"file:///var/www/blog/src/vendor/laravel/framework/src/Illuminate/Database/Eloquent/Factory.php"
,
"file:///var/www/blog/src/vendor/nikic/php-parser/lib/PhpParser/Node/Expr/Cast/Array_.php"
,
"file:///var/www/blog/src/vendor/kris/laravel-form-builder/src/Kris/LaravelFormBuilder/Filters/FilterInterface.php"
,
"file:///var/www/blog/src/vendor/laravel/framework/src/Illuminate/Contracts/Validation/Validator.php"
,
"file:///var/www/blog/src/vendor/laravel/framework/src/Illuminate/Foundation/Console/JobMakeCommand.php"
,
"file:///var/www/blog/src/vendor/phpspec/prophecy/src/Prophecy/Exception/Prediction/UnexpectedCallsException.php"
,
"file:///var/www/blog/src/vendor/laravel/framework/src/Illuminate/Contracts/Queue/QueueableCollection.php"
,
"file:///var/www/blog/src/vendor/laravel/framework/src/Illuminate/Auth/Access/Gate.php"
,
"file:///var/www/blog/src/vendor/swiftmailer/swiftmailer/tests/unit/Swift/Mime/HeaderEncoder/QpHeaderEncoderTest.php"
,
"file:///var/www/blog/src/vendor/laravel/framework/src/Illuminate/Contracts/Support/Jsonable.php"
,
"file:///var/www/blog/src/vendor/laravel/framework/src/Illuminate/Contracts/Filesystem/Cloud.php"
,
"file:///var/www/blog/src/vendor/kris/laravel-form-builder/src/Kris/LaravelFormBuilder/Filters/Collection/Integer.php"
,
"file:///var/www/blog/src/vendor/laravel/framework/src/Illuminate/Foundation/Bus/PendingDispatch.php"
,
"file:///var/www/blog/src/vendor/laravel/framework/src/Illuminate/Mail/Transport/SparkPostTransport.php"
,
"file:///var/www/blog/src/vendor/laravel/framework/src/Illuminate/Auth/Passwords/PasswordResetServiceProvider.php"
,
"file:///var/www/blog/src/vendor/laravel/framework/src/Illuminate/Console/Scheduling/ScheduleRunCommand.php"
,
"file:///var/www/blog/src/vendor/swiftmailer/swiftmailer/tests/acceptance/Swift/Mime/MimePartAcceptanceTest.php"
,
"file:///var/www/blog/src/vendor/laravel/framework/src/Illuminate/Database/Query/Processors/SQLiteProcessor.php"
,
"file:///var/www/blog/src/vendor/laravel/framework/src/Illuminate/Mail/resources/views/html/button.blade.php"
,
"file:///var/www/blog/src/vendor/laravel/framework/src/Illuminate/Contracts/Container/BindingResolutionException.php"
,
"file:///var/www/blog/src/vendor/symfony/http-foundation/Tests/Session/Storage/Handler/AbstractSessionHandlerTest.php"
,
"file:///var/www/blog/src/vendor/kris/laravel-form-builder/src/Kris/LaravelFormBuilder/Filters/Exception/FilterAlreadyBindedException.php"
,
"file:///var/www/blog/src/vendor/swiftmailer/swiftmailer/tests/acceptance/Swift/Transport/StreamBuffer/BasicSocketAcceptanceTest.php"
,
"file:///var/www/blog/src/vendor/swiftmailer/swiftmailer/tests/unit/Swift/Mime/Headers/ParameterizedHeaderTest.php"
,
"file:///var/www/blog/src/vendor/laravel/framework/src/Illuminate/Contracts/Cache/LockTimeoutException.php"
,
"file:///var/www/blog/src/vendor/laravel/framework/src/Illuminate/Queue/Failed/DatabaseFailedJobProvider.php"
,
"file:///var/www/blog/src/vendor/laravel/framework/src/Illuminate/Contracts/Routing/UrlGenerator.php"
,
"file:///var/www/blog/src/vendor/phpdocumentor/reflection-docblock/src/DocBlock/Tags/Reference/Fqsen.php"
,
"file:///var/www/blog/src/vendor/laravel/framework/src/Illuminate/View/Compilers/Concerns/CompilesEchos.php"
,
"file:///var/www/blog/src/vendor/laravel/framework/src/Illuminate/Foundation/Testing/Concerns/MocksApplicationServices.php"
,
"file:///var/www/blog/src/vendor/laravel/framework/src/Illuminate/Support/Facades/Cache.php"
,
"file:///var/www/blog/src/vendor/laravel/framework/src/Illuminate/Auth/Passwords/CanResetPassword.php"
,
"file:///var/www/blog/src/vendor/laravel/framework/src/Illuminate/Support/Facades/Request.php"
,
"file:///var/www/blog/src/vendor/laravel/framework/src/Illuminate/Foundation/Testing/DatabaseMigrations.php"
,
"file:///var/www/blog/src/vendor/mockery/mockery/tests/Mockery/Generator/StringManipulation/Pass/MagicMethodTypeHintsPassTest.php"
,
"file:///var/www/blog/src/vendor/laravel/framework/src/Illuminate/Foundation/Auth/ThrottlesLogins.php"
,
"file:///var/www/blog/src/vendor/laravel/framework/src/Illuminate/Foundation/Bootstrap/LoadConfiguration.php"
,
"file:///var/www/blog/src/vendor/laravel/framework/src/Illuminate/Database/Eloquent/Concerns/HasAttributes.php"
,
"file:///var/www/blog/src/vendor/mockery/mockery/library/Mockery/Generator/StringManipulation/Pass/RemoveUnserializeForInternalSerializableClassesPass.php"
,
"file:///var/www/blog/src/vendor/laravel/framework/src/Illuminate/Console/Events/ArtisanStarting.php"
,
"file:///var/www/blog/src/vendor/laravel/framework/src/Illuminate/View/Engines/EngineResolver.php"
,
"file:///var/www/blog/src/vendor/laravel/framework/src/Illuminate/Contracts/Mail/Mailer.php"
,
"file:///var/www/blog/src/vendor/maximebf/debugbar/src/DebugBar/DataFormatter/VarDumper/DebugBarHtmlDumper.php"
,
"file:///var/www/blog/src/vendor/laravel/framework/src/Illuminate/Database/Eloquent/Relations/MorphPivot.php"
,
"file:///var/www/blog/src/vendor/laravel/framework/src/Illuminate/Http/Resources/ConditionallyLoadsAttributes.php"
,
"file:///var/www/blog/src/vendor/laravel/framework/src/Illuminate/Mail/Transport/MailgunTransport.php"
,
"file:///var/www/blog/src/vendor/laravel/framework/src/Illuminate/Foundation/Testing/WithoutEvents.php"
,
"file:///var/www/blog/src/vendor/laravel/framework/src/Illuminate/Foundation/Exceptions/Handler.php"
,
"file:///var/www/blog/src/vendor/laravel/framework/src/Illuminate/Foundation/Console/MailMakeCommand.php"
,
"file:///var/www/blog/src/vendor/laravel/framework/src/Illuminate/Foundation/Providers/ComposerServiceProvider.php"
,
"file:///var/www/blog/src/vendor/swiftmailer/swiftmailer/lib/classes/Swift/Mime/ContentEncoder/NativeQpContentEncoder.php"
,
"file:///var/www/blog/src/vendor/nikic/php-parser/lib/PhpParser/Node/Expr/BinaryOp/Identical.php"
,
"file:///var/www/blog/src/vendor/laravel/framework/src/Illuminate/Redis/Connectors/PhpRedisConnector.php"
,
"file:///var/www/blog/src/vendor/swiftmailer/swiftmailer/lib/classes/Swift/Mime/Headers/DateHeader.php"
,
"file:///var/www/blog/src/vendor/nikic/php-parser/lib/PhpParser/Node/Expr/AssignOp/Div.php"
,
"file:///var/www/blog/src/vendor/laravel/framework/src/Illuminate/Database/Schema/Grammars/SqlServerGrammar.php"
,
"file:///var/www/blog/src/vendor/nikic/php-parser/lib/PhpParser/Node/Expr/Cast/Unset_.php"
,
"file:///var/www/blog/src/vendor/laravel/framework/src/Illuminate/Mail/Transport/MandrillTransport.php"
,
"file:///var/www/blog/src/vendor/laravel/framework/src/Illuminate/View/Engines/FileEngine.php"
,
"file:///var/www/blog/src/vendor/laravel/framework/src/Illuminate/Queue/Console/RestartCommand.php"
,
"file:///var/www/blog/src/vendor/laravel/framework/src/Illuminate/Mail/resources/views/markdown/promotion/button.blade.php"
,
"file:///var/www/blog/src/vendor/laravel/framework/src/Illuminate/Database/Query/Builder.php"
,
"file:///var/www/blog/src/vendor/laravel/framework/src/Illuminate/Mail/resources/views/html/header.blade.php"
,
"file:///var/www/blog/src/vendor/laravel/framework/src/Illuminate/Foundation/Bootstrap/LoadEnvironmentVariables.php"
,
"file:///var/www/blog/src/vendor/laravel/framework/src/Illuminate/Contracts/Redis/Factory.php"
,
"file:///var/www/blog/src/vendor/laravel/framework/src/Illuminate/Database/Schema/Grammars/RenameColumn.php"
,
"file:///var/www/blog/src/vendor/laravel/framework/src/Illuminate/Http/Resources/Json/PaginatedResourceResponse.php"
,
"file:///var/www/blog/src/vendor/laravel/framework/src/Illuminate/Queue/Connectors/RedisConnector.php"
,
"file:///var/www/blog/src/vendor/nikic/php-parser/lib/PhpParser/Node/Scalar/MagicConst/Method.php"
,
"file:///var/www/blog/src/vendor/laravel/framework/src/Illuminate/Support/Facades/Session.php"
,
"file:///var/www/blog/src/vendor/laravel/framework/src/Illuminate/Mail/resources/views/html/footer.blade.php"
,
"file:///var/www/blog/src/vendor/nikic/php-parser/lib/PhpParser/Node/Expr/AssignOp/BitwiseAnd.php"
,
"file:///var/www/blog/src/vendor/laravel/framework/src/Illuminate/View/Concerns/ManagesEvents.php"
,
"file:///var/www/blog/src/vendor/laravel/framework/src/Illuminate/Auth/Events/PasswordReset.php"
,
"file:///var/www/blog/src/vendor/laravel/framework/src/Illuminate/Redis/Connectors/PredisConnector.php"
,
"file:///var/www/blog/src/vendor/mockery/mockery/tests/Mockery/Generator/StringManipulation/Pass/InstanceMockPassTest.php"
,
"file:///var/www/blog/src/vendor/laravel/framework/src/Illuminate/Auth/Events/Failed.php"
,
"file:///var/www/blog/src/vendor/phpspec/prophecy/src/Prophecy/Argument/Token/ObjectStateToken.php"
,
"file:///var/www/blog/src/vendor/laravel/framework/src/Illuminate/Validation/Concerns/FormatsMessages.php"
,
"file:///var/www/blog/src/vendor/kris/laravel-form-builder/src/Kris/LaravelFormBuilder/Filters/Collection/Trim.php"
,
"file:///var/www/blog/src/vendor/phpdocumentor/reflection-docblock/src/DocBlock/Tags/Reference/Reference.php"
,
"file:///var/www/blog/src/vendor/laravel/framework/src/Illuminate/Auth/Middleware/Authorize.php"
,
"file:///var/www/blog/src/vendor/swiftmailer/swiftmailer/tests/acceptance/Swift/Transport/StreamBuffer/SocketTimeoutTest.php"
,
"file:///var/www/blog/src/vendor/laravel/framework/src/Illuminate/Database/Events/ConnectionEvent.php"
,
"file:///var/www/blog/src/vendor/phpspec/prophecy/src/Prophecy/Doubler/ClassPatch/ReflectionClassNewInstancePatch.php"
,
"file:///var/www/blog/src/vendor/swiftmailer/swiftmailer/lib/classes/Swift/Mime/ContentEncoder/PlainContentEncoder.php"
,
"file:///var/www/blog/src/vendor/swiftmailer/swiftmailer/lib/classes/Swift/Mime/Headers/UnstructuredHeader.php"
,
"file:///var/www/blog/src/vendor/maximebf/debugbar/src/DebugBar/Bridge/Twig/TraceableTwigEnvironment.php"
,
"file:///var/www/blog/src/vendor/laravel/framework/src/Illuminate/Foundation/Console/PolicyMakeCommand.php"
,
"file:///var/www/blog/src/vendor/kris/laravel-form-builder/src/Kris/LaravelFormBuilder/Fields/ButtonType.php"
,
"file:///var/www/blog/src/vendor/nikic/php-parser/lib/PhpParser/Node/Expr/Cast/Object_.php"
,
"file:///var/www/blog/src/vendor/phpspec/prophecy/src/Prophecy/Exception/Prophecy/ObjectProphecyException.php"
,
"file:///var/www/blog/src/vendor/laravel/framework/src/Illuminate/Notifications/Messages/MailMessage.php"
,
"file:///var/www/blog/src/vendor/laravel/framework/src/Illuminate/Broadcasting/Broadcasters/PusherBroadcaster.php"
,
"file:///var/www/blog/src/vendor/laravel/framework/src/Illuminate/Foundation/Http/Events/RequestHandled.php"
,
"file:///var/www/blog/src/vendor/laravel/framework/src/Illuminate/Foundation/Testing/WithoutMiddleware.php"
,
"file:///var/www/blog/src/vendor/swiftmailer/swiftmailer/tests/unit/Swift/Transport/Esmtp/Auth/LoginAuthenticatorTest.php"
,
"file:///var/www/blog/src/vendor/laravel/framework/src/Illuminate/Validation/Rules/DatabaseRule.php"
,
"file:///var/www/blog/src/vendor/laravel/framework/src/Illuminate/Notifications/Console/NotificationTableCommand.php"
,
"file:///var/www/blog/src/vendor/laravel/framework/src/Illuminate/Database/Eloquent/Relations/Concerns/SupportsDefaultModels.php"
,
"file:///var/www/blog/src/vendor/laravel/framework/src/Illuminate/Notifications/Messages/DatabaseMessage.php"
,
"file:///var/www/blog/src/vendor/laravel/framework/src/Illuminate/Contracts/View/View.php"
,
"file:///var/www/blog/src/vendor/laravel/framework/src/Illuminate/Broadcasting/Broadcasters/Broadcaster.php"
,
"file:///var/www/blog/src/vendor/laravel/framework/src/Illuminate/Foundation/Exceptions/views/500.blade.php"
,
"file:///var/www/blog/src/vendor/laravel/framework/src/Illuminate/Mail/resources/views/markdown/button.blade.php"
,
"file:///var/www/blog/src/vendor/laravel/framework/src/Illuminate/Contracts/Console/Application.php"
,
"file:///var/www/blog/src/vendor/laravel/framework/src/Illuminate/Foundation/Exceptions/views/419.blade.php"
,
"file:///var/www/blog/src/vendor/laravel/framework/src/Illuminate/Database/Migrations/DatabaseMigrationRepository.php"
,
"file:///var/www/blog/src/vendor/laravel/framework/src/Illuminate/Routing/Matching/UriValidator.php"
,
"file:///var/www/blog/src/vendor/laravel/framework/src/Illuminate/Database/Schema/Grammars/Grammar.php"
,
"file:///var/www/blog/src/vendor/laravel/framework/src/Illuminate/Contracts/Queue/Monitor.php"
,
"file:///var/www/blog/src/vendor/swiftmailer/swiftmailer/tests/acceptance/Swift/Mime/AttachmentAcceptanceTest.php"
,
"file:///var/www/blog/src/vendor/laravel/framework/src/Illuminate/Database/Schema/PostgresBuilder.php"
,
"file:///var/www/blog/src/vendor/laravel/framework/src/Illuminate/Http/Middleware/CheckResponseForModifications.php"
,
"file:///var/www/blog/src/vendor/nikic/php-parser/lib/PhpParser/Node/Expr/BinaryOp/Minus.php"
,
"file:///var/www/blog/src/vendor/phpspec/prophecy/src/Prophecy/Exception/Prophecy/ProphecyException.php"
,
"file:///var/www/blog/src/vendor/kris/laravel-form-builder/src/Kris/LaravelFormBuilder/Filters/Collection/Lowercase.php"
,
"file:///var/www/blog/src/vendor/kris/laravel-form-builder/src/Kris/LaravelFormBuilder/Filters/Collection/Uppercase.php"
,
"file:///var/www/blog/src/vendor/laravel/framework/src/Illuminate/Contracts/Support/Arrayable.php"
,
"file:///var/www/blog/src/vendor/laravel/framework/src/Illuminate/Foundation/Auth/RedirectsUsers.php"
,
"file:///var/www/blog/src/vendor/laravel/framework/src/Illuminate/Contracts/Cookie/Factory.php"
,
"file:///var/www/blog/src/vendor/laravel/framework/src/Illuminate/Database/Eloquent/MassAssignmentException.php"
,
"file:///var/www/blog/src/vendor/nikic/php-parser/lib/PhpParser/Node/Expr/AssignOp/ShiftRight.php"
,
"file:///var/www/blog/src/vendor/kris/laravel-form-builder/src/Kris/LaravelFormBuilder/Events/AfterFormCreation.php"
,
"file:///var/www/blog/src/vendor/laravel/framework/src/Illuminate/Contracts/Queue/Factory.php"
,
"file:///var/www/blog/src/vendor/laravel/framework/src/Illuminate/Database/Eloquent/Concerns/QueriesRelationships.php"
,
"file:///var/www/blog/src/vendor/laravel/framework/src/Illuminate/Database/Migrations/MigrationRepositoryInterface.php"
,
"file:///var/www/blog/src/vendor/laravel/framework/src/Illuminate/Validation/Rules/In.php"
,
"file:///var/www/blog/src/vendor/laravel/framework/src/Illuminate/Http/Concerns/InteractsWithFlashData.php"
,
"file:///var/www/blog/src/vendor/phpspec/prophecy/src/Prophecy/Exception/Prediction/PredictionException.php"
,
"file:///var/www/blog/src/vendor/phpspec/prophecy/src/Prophecy/Exception/Doubler/MethodNotExtendableException.php"
,
"file:///var/www/blog/src/vendor/laravel/framework/src/Illuminate/View/Engines/Engine.php"
,
"file:///var/www/blog/src/vendor/laravel/framework/src/Illuminate/Foundation/Testing/TestCase.php"
,
"file:///var/www/blog/src/vendor/laravel/framework/src/Illuminate/Support/Testing/Fakes/PendingMailFake.php"
,
"file:///var/www/blog/src/vendor/laravel/framework/src/Illuminate/Contracts/Auth/PasswordBrokerFactory.php"
,
"file:///var/www/blog/src/vendor/maximebf/debugbar/src/DebugBar/Bridge/SwiftMailer/SwiftLogCollector.php"
,
"file:///var/www/blog/src/vendor/laravel/framework/src/Illuminate/Foundation/Bus/DispatchesJobs.php"
,
"file:///var/www/blog/src/vendor/nikic/php-parser/lib/PhpParser/Node/Expr/AssignOp/Minus.php"
,
"file:///var/www/blog/src/vendor/nikic/php-parser/lib/PhpParser/Node/Expr/AssignOp/Plus.php"
,
"file:///var/www/blog/src/vendor/laravel/framework/src/Illuminate/Database/Eloquent/Relations/MorphToMany.php"
,
"file:///var/www/blog/src/vendor/laravel/framework/src/Illuminate/Contracts/Hashing/Hasher.php"
,
"file:///var/www/blog/src/vendor/swiftmailer/swiftmailer/lib/classes/Swift/Mime/Headers/MailboxHeader.php"
,
"file:///var/www/blog/src/vendor/laravel/framework/src/Illuminate/Queue/Events/WorkerStopping.php"
,
"file:///var/www/blog/src/vendor/mockery/mockery/library/Mockery/Generator/StringManipulation/Pass/InterfacePass.php"
,
"file:///var/www/blog/src/vendor/laravel/framework/src/Illuminate/Queue/Console/FlushFailedCommand.php"
,
"file:///var/www/blog/src/vendor/laravel/framework/src/Illuminate/Database/Eloquent/Concerns/HasEvents.php"
,
"file:///var/www/blog/src/vendor/phpspec/prophecy/src/Prophecy/Exception/Doubler/InterfaceNotFoundException.php"
,
"file:///var/www/blog/src/vendor/laravel/framework/src/Illuminate/Mail/resources/views/markdown/header.blade.php"
,
"file:///var/www/blog/src/vendor/laravel/framework/src/Illuminate/Database/Query/Processors/PostgresProcessor.php"
,
"file:///var/www/blog/src/vendor/laravel/framework/src/Illuminate/Routing/Events/RouteMatched.php"
,
"file:///var/www/blog/src/vendor/laravel/framework/src/Illuminate/Console/Scheduling/Mutex.php"
,
"file:///var/www/blog/src/vendor/laravel/framework/src/Illuminate/Foundation/Auth/Access/Authorizable.php"
,
"file:///var/www/blog/src/vendor/laravel/framework/src/Illuminate/Queue/Console/RetryCommand.php"
,
"file:///var/www/blog/src/vendor/phpspec/prophecy/src/Prophecy/Doubler/Generator/ClassCodeGenerator.php"
,
"file:///var/www/blog/src/vendor/laravel/framework/src/Illuminate/Session/Console/SessionTableCommand.php"
,
"file:///var/www/blog/src/vendor/laravel/framework/src/Illuminate/Database/Eloquent/Relations/HasOne.php"
,
"file:///var/www/blog/src/vendor/laravel/framework/src/Illuminate/Foundation/Console/PresetCommand.php"
,
"file:///var/www/blog/src/vendor/laravel/framework/src/Illuminate/Database/Eloquent/Relations/BelongsToMany.php"
,
"file:///var/www/blog/src/vendor/laravel/framework/src/Illuminate/Foundation/Exceptions/views/429.blade.php"
,
"file:///var/www/blog/src/vendor/laravel/framework/src/Illuminate/Mail/resources/views/markdown/footer.blade.php"
,
"file:///var/www/blog/src/vendor/laravel/framework/src/Illuminate/Http/Testing/MimeType.php"
,
"file:///var/www/blog/src/vendor/kris/laravel-form-builder/src/Kris/LaravelFormBuilder/Traits/ValidatesWhenResolved.php"
,
"file:///var/www/blog/src/vendor/laravel/framework/src/Illuminate/Contracts/Queue/ShouldQueue.php"
,
"file:///var/www/blog/src/vendor/laravel/framework/src/Illuminate/Foundation/Console/NotificationMakeCommand.php"
,
"file:///var/www/blog/src/vendor/laravel/framework/src/Illuminate/Routing/Exceptions/UrlGenerationException.php"
,
"file:///var/www/blog/src/vendor/laravel/framework/src/Illuminate/Auth/Access/Response.php"
,
"file:///var/www/blog/src/vendor/laravel/framework/src/Illuminate/Http/Concerns/InteractsWithInput.php"
,
"file:///var/www/blog/src/vendor/laravel/framework/src/Illuminate/Database/Schema/Blueprint.php"
,
"file:///var/www/blog/src/vendor/laravel/framework/src/Illuminate/Support/Facades/Redirect.php"
,
"file:///var/www/blog/src/vendor/laravel/framework/src/Illuminate/Queue/Connectors/NullConnector.php"
,
"file:///var/www/blog/src/vendor/laravel/framework/src/Illuminate/Foundation/Testing/Constraints/HasInDatabase.php"
,
"file:///var/www/blog/src/vendor/laravel/framework/src/Illuminate/Redis/Limiters/ConcurrencyLimiter.php"
,
"file:///var/www/blog/src/vendor/laravel/framework/src/Illuminate/Http/Middleware/FrameGuard.php"
,
"file:///var/www/blog/src/vendor/symfony/http-foundation/Tests/Session/Storage/Handler/NativeSessionHandlerTest.php"
,
"file:///var/www/blog/src/vendor/phpspec/prophecy/src/Prophecy/Argument/Token/AnyValueToken.php"
,
"file:///var/www/blog/src/vendor/kris/laravel-form-builder/src/Kris/LaravelFormBuilder/Filters/Exception/UnableToResolveFilterException.php"
,
"file:///var/www/blog/src/vendor/laravel/framework/src/Illuminate/Database/Eloquent/Relations/MorphMany.php"
,
"file:///var/www/blog/src/vendor/laravel/framework/src/Illuminate/Notifications/Messages/SlackAttachment.php"
,
"file:///var/www/blog/src/vendor/laravel/framework/src/Illuminate/Support/Facades/Cookie.php"
,
"file:///var/www/blog/src/vendor/kris/laravel-form-builder/src/Kris/LaravelFormBuilder/Filters/Collection/PregReplace.php"
,
"file:///var/www/blog/src/vendor/swiftmailer/swiftmailer/tests/acceptance/Swift/Mime/ContentEncoder/QpContentEncoderAcceptanceTest.php"
,
"file:///var/www/blog/src/vendor/laravel/framework/src/Illuminate/Database/Eloquent/Relations/BelongsTo.php"
,
"file:///var/www/blog/src/vendor/laravel/framework/src/Illuminate/Support/Facades/View.php"
,
"file:///var/www/blog/src/vendor/laravel/framework/src/Illuminate/Queue/Console/ListFailedCommand.php"
,
"file:///var/www/blog/src/vendor/laravel/framework/src/Illuminate/Redis/Limiters/ConcurrencyLimiterBuilder.php"
,
"file:///var/www/blog/src/vendor/laravel/framework/src/Illuminate/Validation/Concerns/ValidatesAttributes.php"
,
"file:///var/www/blog/src/vendor/kris/laravel-form-builder/src/Kris/LaravelFormBuilder/Filters/Collection/StripNewlines.php"
,
"file:///var/www/blog/src/vendor/laravel/framework/src/Illuminate/View/Compilers/Concerns/CompilesJson.php"
,
"file:///var/www/blog/src/vendor/laravel/framework/src/Illuminate/Foundation/Providers/ArtisanServiceProvider.php"
,
"file:///var/www/blog/src/vendor/laravel/framework/src/Illuminate/Mail/resources/views/markdown/promotion.blade.php"
,
"file:///var/www/blog/src/vendor/phpspec/prophecy/src/Prophecy/Argument/Token/ExactValueToken.php"
,
"file:///var/www/blog/src/vendor/laravel/framework/src/Illuminate/Database/Eloquent/Concerns/GuardsAttributes.php"
,
"file:///var/www/blog/src/vendor/laravel/framework/src/Illuminate/Contracts/Auth/Access/Authorizable.php"
,
"file:///var/www/blog/src/vendor/kris/laravel-form-builder/src/Kris/LaravelFormBuilder/Events/AfterFormValidation.php"
,
"file:///var/www/blog/src/vendor/laravel/framework/src/Illuminate/Database/Schema/Grammars/MySqlGrammar.php"
,
"file:///var/www/blog/src/vendor/laravel/framework/src/Illuminate/Contracts/Console/Kernel.php"
,
"file:///var/www/blog/src/vendor/laravel/framework/src/Illuminate/Http/Resources/Json/ResourceCollection.php"
,
"file:///var/www/blog/src/vendor/laravel/framework/src/Illuminate/Foundation/Testing/Concerns/MakesHttpRequests.php"
,
"file:///var/www/blog/src/vendor/phpspec/prophecy/src/Prophecy/Argument/Token/LogicalAndToken.php"
,
"file:///var/www/blog/src/vendor/laravel/framework/src/Illuminate/Foundation/Console/ResourceMakeCommand.php"
,
"file:///var/www/blog/src/vendor/kris/laravel-form-builder/src/Kris/LaravelFormBuilder/Fields/InputType.php"
,
"file:///var/www/blog/src/vendor/laravel/framework/src/Illuminate/Routing/Contracts/ControllerDispatcher.php"
,
"file:///var/www/blog/src/vendor/laravel/framework/src/Illuminate/Http/Resources/Json/Resource.php"
,
"file:///var/www/blog/src/vendor/swiftmailer/swiftmailer/tests/acceptance/Swift/Transport/StreamBuffer/SslSocketAcceptanceTest.php"
,
"file:///var/www/blog/src/vendor/laravel/framework/src/Illuminate/Database/Console/Migrations/StatusCommand.php"
,
"file:///var/www/blog/src/vendor/laravel/framework/src/Illuminate/Contracts/Cache/Repository.php"
,
"file:///var/www/blog/src/vendor/laravel/framework/src/Illuminate/Notifications/Channels/SlackWebhookChannel.php"
,
"file:///var/www/blog/src/vendor/laravel/framework/src/Illuminate/Notifications/Events/NotificationSent.php"
,
"file:///var/www/blog/src/vendor/laravel/framework/src/Illuminate/Validation/Rules/Unique.php"
,
"file:///var/www/blog/src/vendor/laravel/framework/src/Illuminate/Support/Traits/CapsuleManagerTrait.php"
,
"file:///var/www/blog/src/vendor/laravel/framework/src/Illuminate/Notifications/Messages/NexmoMessage.php"
,
"file:///var/www/blog/src/vendor/laravel/framework/src/Illuminate/Contracts/Container/ContextualBindingBuilder.php"
,
"file:///var/www/blog/src/vendor/laravel/framework/src/Illuminate/Database/Eloquent/Relations/Relation.php"
,
"file:///var/www/blog/src/vendor/laravel/framework/src/Illuminate/Foundation/Console/KeyGenerateCommand.php"
,
"file:///var/www/blog/src/vendor/swiftmailer/swiftmailer/lib/classes/Swift/Mime/Headers/AbstractHeader.php"
,
"file:///var/www/blog/src/vendor/laravel/framework/src/Illuminate/Contracts/Encryption/DecryptException.php"
,
"file:///var/www/blog/src/vendor/swiftmailer/swiftmailer/tests/acceptance/Swift/Transport/StreamBuffer/AbstractStreamBufferAcceptanceTest.php"
,
"file:///var/www/blog/src/vendor/laravel/framework/src/Illuminate/Foundation/Exceptions/views/404.blade.php"
,
"file:///var/www/blog/src/vendor/swiftmailer/swiftmailer/tests/acceptance/Swift/Mime/ContentEncoder/Base64ContentEncoderAcceptanceTest.php"
,
"file:///var/www/blog/src/vendor/swiftmailer/swiftmailer/lib/classes/Swift/Mime/ContentEncoder/Base64ContentEncoder.php"
,
"file:///var/www/blog/src/vendor/laravel/framework/src/Illuminate/Contracts/Auth/PasswordBroker.php"
,
"file:///var/www/blog/src/vendor/maximebf/debugbar/src/DebugBar/DataCollector/PDO/PDOCollector.php"
,
"file:///var/www/blog/src/vendor/laravel/framework/src/Illuminate/Http/Resources/DelegatesToResource.php"
,
"file:///var/www/blog/src/vendor/swiftmailer/swiftmailer/lib/classes/Swift/Transport/Esmtp/AuthHandler.php"
,
"file:///var/www/blog/src/vendor/swiftmailer/swiftmailer/tests/unit/Swift/Mime/Headers/MailboxHeaderTest.php"
,
"file:///var/www/blog/src/vendor/laravel/framework/src/Illuminate/Mail/resources/views/markdown/table.blade.php"
,
"file:///var/www/blog/src/vendor/laravel/framework/src/Illuminate/Contracts/Queue/Queue.php"
,
"file:///var/www/blog/src/vendor/laravel/framework/src/Illuminate/Support/Facades/File.php"
,
"file:///var/www/blog/src/vendor/kris/laravel-form-builder/src/Kris/LaravelFormBuilder/Events/AfterFieldCreation.php"
,
"file:///var/www/blog/src/vendor/laravel/framework/src/Illuminate/Mail/resources/views/html/table.blade.php"
,
"file:///var/www/blog/src/vendor/laravel/framework/src/Illuminate/View/Engines/CompilerEngine.php"
,
"file:///var/www/blog/src/vendor/phpspec/prophecy/src/Prophecy/Doubler/Generator/ReflectionInterface.php"
,
"file:///var/www/blog/src/vendor/laravel/framework/src/Illuminate/Support/Debug/Dumper.php"
,
"file:///var/www/blog/src/vendor/laravel/framework/src/Illuminate/Mail/resources/views/html/subcopy.blade.php"
,
"file:///var/www/blog/src/vendor/laravel/framework/src/Illuminate/Foundation/Console/TestMakeCommand.php"
,
"file:///var/www/blog/src/vendor/swiftmailer/swiftmailer/tests/unit/Swift/Mime/Headers/IdentificationHeaderTest.php"
,
"file:///var/www/blog/src/vendor/laravel/framework/src/Illuminate/Database/Events/TransactionRolledBack.php"
,
"file:///var/www/blog/src/vendor/laravel/framework/src/Illuminate/Database/Connectors/MySqlConnector.php"
,
"file:///var/www/blog/src/vendor/laravel/framework/src/Illuminate/Database/Query/Grammars/SqlServerGrammar.php"
,
"file:///var/www/blog/src/vendor/laravel/framework/src/Illuminate/Contracts/Validation/ValidatesWhenResolved.php"
,
"file:///var/www/blog/src/vendor/laravel/framework/src/Illuminate/Contracts/Support/Responsable.php"
,
"file:///var/www/blog/src/vendor/laravel/framework/src/Illuminate/Contracts/Auth/StatefulGuard.php"
,
"file:///var/www/blog/src/vendor/nikic/php-parser/lib/PhpParser/Node/Expr/BinaryOp/NotIdentical.php"
,
"file:///var/www/blog/src/vendor/laravel/framework/src/Illuminate/Cache/Events/CacheMissed.php"
,
"file:///var/www/blog/src/vendor/phpspec/prophecy/src/Prophecy/Doubler/ClassPatch/MagicCallPatch.php"
,
"file:///var/www/blog/src/vendor/phpspec/prophecy/src/Prophecy/Argument/Token/TokenInterface.php"
,
"file:///var/www/blog/src/vendor/laravel/framework/src/Illuminate/Foundation/Http/Middleware/ValidatePostSize.php"
,
"file:///var/www/blog/src/vendor/laravel/framework/src/Illuminate/Contracts/Cache/Store.php"
,
"file:///var/www/blog/src/vendor/laravel/framework/src/Illuminate/Queue/Connectors/SqsConnector.php"
,
"file:///var/www/blog/src/vendor/laravel/framework/src/Illuminate/Foundation/Console/ClosureCommand.php"
,
"file:///var/www/blog/src/vendor/laravel/framework/src/Illuminate/Mail/Transport/LogTransport.php"
,
"file:///var/www/blog/src/vendor/laravel/framework/src/Illuminate/Contracts/Container/Container.php"
,
"file:///var/www/blog/src/vendor/laravel/framework/src/Illuminate/View/Compilers/Concerns/CompilesLoops.php"
,
"file:///var/www/blog/src/vendor/nikic/php-parser/lib/PhpParser/Node/Expr/BinaryOp/BitwiseXor.php"
,
"file:///var/www/blog/src/vendor/laravel/framework/src/Illuminate/Database/Console/Migrations/RefreshCommand.php"
,
"file:///var/www/blog/src/vendor/kris/laravel-form-builder/src/Kris/LaravelFormBuilder/Console/FormMakeCommand.php"
,
"file:///var/www/blog/src/vendor/laravel/framework/src/Illuminate/Database/Eloquent/Relations/MorphOneOrMany.php"
,
"file:///var/www/blog/src/vendor/phpspec/prophecy/src/Prophecy/Exception/Doubler/ClassMirrorException.php"
,
"file:///var/www/blog/src/vendor/mockery/mockery/library/Mockery/Generator/StringManipulation/Pass/CallTypeHintPass.php"
,
"file:///var/www/blog/src/vendor/laravel/framework/src/Illuminate/Pagination/resources/views/default.blade.php"
,
"file:///var/www/blog/src/vendor/swiftmailer/swiftmailer/tests/unit/Swift/Mime/ContentEncoder/Base64ContentEncoderTest.php"
,
"file:///var/www/blog/src/vendor/laravel/framework/src/Illuminate/Foundation/Providers/ConsoleSupportServiceProvider.php"
,
"file:///var/www/blog/src/vendor/laravel/framework/src/Illuminate/Queue/Events/JobExceptionOccurred.php"
,
"file:///var/www/blog/src/vendor/laravel/framework/src/Illuminate/Contracts/Mail/MailQueue.php"
,
"file:///var/www/blog/src/vendor/phpspec/prophecy/src/Prophecy/Argument/Token/AnyValuesToken.php"
,
"file:///var/www/blog/src/vendor/laravel/framework/src/Illuminate/Contracts/Auth/Factory.php"
,
"file:///var/www/blog/src/vendor/laravel/framework/src/Illuminate/Foundation/Console/ViewClearCommand.php"
,
"file:///var/www/blog/src/vendor/swiftmailer/swiftmailer/lib/classes/Swift/Plugins/Pop/Pop3Connection.php"
,
"file:///var/www/blog/src/vendor/laravel/framework/src/Illuminate/Console/Scheduling/ScheduleFinishCommand.php"
,
"file:///var/www/blog/src/vendor/kris/laravel-form-builder/src/Kris/LaravelFormBuilder/Fields/CheckableType.php"
,
"file:///var/www/blog/src/vendor/kris/laravel-form-builder/src/Kris/LaravelFormBuilder/Fields/FormField.php"
,
"file:///var/www/blog/src/vendor/phpspec/prophecy/src/Prophecy/Doubler/ClassPatch/ClassPatchInterface.php"
,
"file:///var/www/blog/src/vendor/laravel/framework/src/Illuminate/View/Compilers/Concerns/CompilesInjections.php"
,
"file:///var/www/blog/src/vendor/laravel/framework/src/Illuminate/Contracts/Validation/Rule.php"
,
"file:///var/www/blog/src/vendor/swiftmailer/swiftmailer/lib/classes/Swift/Plugins/Loggers/ArrayLogger.php"
,
"file:///var/www/blog/src/vendor/laravel/framework/src/Illuminate/Database/Console/Migrations/MigrateMakeCommand.php"
,
"file:///var/www/blog/src/vendor/laravel/framework/src/Illuminate/Auth/Middleware/Authenticate.php"
,
"file:///var/www/blog/src/vendor/laravel/framework/src/Illuminate/Foundation/Auth/ResetsPasswords.php"
,
"file:///var/www/blog/src/vendor/laravel/framework/src/Illuminate/Contracts/Queue/Job.php"
,
"file:///var/www/blog/src/vendor/phpspec/prophecy/src/Prophecy/Exception/Doubler/ClassCreatorException.php"
,
"file:///var/www/blog/src/vendor/laravel/framework/src/Illuminate/Support/Facades/Storage.php"
,
"file:///var/www/blog/src/vendor/laravel/framework/src/Illuminate/Foundation/Auth/User.php"
,
"file:///var/www/blog/src/vendor/laravel/framework/src/Illuminate/Support/Traits/Macroable.php"
,
"file:///var/www/blog/src/vendor/laravel/framework/src/Illuminate/Contracts/Logging/Log.php"
,
"file:///var/www/blog/src/vendor/laravel/framework/src/Illuminate/Queue/Console/ListenCommand.php"
,
"file:///var/www/blog/src/vendor/laravel/framework/src/Illuminate/Routing/Middleware/SubstituteBindings.php"
,
"file:///var/www/blog/src/vendor/phpspec/prophecy/src/Prophecy/Doubler/Generator/Node/ArgumentNode.php"
,
"file:///var/www/blog/src/vendor/laravel/framework/src/Illuminate/Database/Eloquent/Builder.php"
,
"file:///var/www/blog/src/vendor/phpunit/phpunit/tests/_files/DataProviderIssue2859/tests/another/TestWithDataProviderTest.php"
,
"file:///var/www/blog/src/vendor/laravel/framework/src/Illuminate/Notifications/Messages/SlackAttachmentField.php"
,
"file:///var/www/blog/src/vendor/laravel/framework/src/Illuminate/Auth/Passwords/DatabaseTokenRepository.php"
,
"file:///var/www/blog/src/vendor/laravel/framework/src/Illuminate/Support/Facades/Auth.php"
,
"file:///var/www/blog/src/vendor/nikic/php-parser/lib/PhpParser/Node/Expr/BinaryOp/Mod.php"
,
"file:///var/www/blog/src/vendor/swiftmailer/swiftmailer/lib/classes/Swift/Plugins/Decorator/Replacements.php"
,
"file:///var/www/blog/src/vendor/laravel/framework/src/Illuminate/Foundation/Console/ListenerMakeCommand.php"
,
"file:///var/www/blog/src/vendor/laravel/framework/src/Illuminate/Foundation/Http/Middleware/TrimStrings.php"
,
"file:///var/www/blog/src/vendor/kris/laravel-form-builder/src/Kris/LaravelFormBuilder/Events/BeforeFormValidation.php"
,
"file:///var/www/blog/src/vendor/laravel/framework/src/Illuminate/Foundation/Bootstrap/RegisterFacades.php"
,
"file:///var/www/blog/src/vendor/symfony/http-kernel/Tests/Fixtures/ExtensionNotValidBundle/DependencyInjection/ExtensionNotValidExtension.php"
,
"file:///var/www/blog/src/vendor/laravel/framework/src/Illuminate/Contracts/Bus/Dispatcher.php"
,
"file:///var/www/blog/src/vendor/phpspec/prophecy/src/Prophecy/Doubler/ClassPatch/DisableConstructorPatch.php"
,
"file:///var/www/blog/src/vendor/laravel/framework/src/Illuminate/Cache/Console/ForgetCommand.php"
,
"file:///var/www/blog/src/vendor/laravel/framework/src/Illuminate/Queue/Jobs/RedisJob.php"
,
"file:///var/www/blog/src/vendor/kris/laravel-form-builder/src/Kris/LaravelFormBuilder/Filters/Collection/BaseName.php"
,
"file:///var/www/blog/src/vendor/laravel/framework/src/Illuminate/Database/Schema/Grammars/PostgresGrammar.php"
,
"file:///var/www/blog/src/vendor/swiftmailer/swiftmailer/tests/acceptance/Swift/Mime/HeaderEncoder/Base64HeaderEncoderAcceptanceTest.php"
,
"file:///var/www/blog/src/vendor/laravel/framework/src/Illuminate/Queue/Failed/FailedJobProviderInterface.php"
,
"file:///var/www/blog/src/vendor/swiftmailer/swiftmailer/lib/classes/Swift/Mime/HeaderEncoder/Base64HeaderEncoder.php"
,
"file:///var/www/blog/src/vendor/laravel/framework/src/Illuminate/Mail/Transport/Transport.php"
,
"file:///var/www/blog/src/vendor/laravel/framework/src/Illuminate/Contracts/Support/MessageBag.php"
,
"file:///var/www/blog/src/vendor/kris/laravel-form-builder/src/Kris/LaravelFormBuilder/Fields/ChoiceType.php"
,
"file:///var/www/blog/src/vendor/laravel/framework/src/Illuminate/Support/Facades/Artisan.php"
,
"file:///var/www/blog/src/vendor/swiftmailer/swiftmailer/tests/unit/Swift/Mime/Headers/UnstructuredHeaderTest.php"
,
"file:///var/www/blog/src/vendor/laravel/framework/src/Illuminate/Contracts/Foundation/Application.php"
,
"file:///var/www/blog/src/vendor/laravel/framework/src/Illuminate/Database/Connectors/SqlServerConnector.php"
,
"file:///var/www/blog/src/vendor/swiftmailer/swiftmailer/tests/acceptance/Swift/Mime/ContentEncoder/PlainContentEncoderAcceptanceTest.php"
,
"file:///var/www/blog/src/vendor/laravel/framework/src/Illuminate/Contracts/Broadcasting/Broadcaster.php"
,
"file:///var/www/blog/src/vendor/laravel/framework/src/Illuminate/Pagination/resources/views/bootstrap-4.blade.php"
,
"file:///var/www/blog/src/vendor/symfony/console/Tests/Fixtures/Style/SymfonyStyle/command/command_9.php"
,
"file:///var/www/blog/src/vendor/laravel/framework/src/Illuminate/Auth/Events/Attempting.php"
,
"file:///var/www/blog/src/vendor/symfony/console/Tests/Fixtures/Style/SymfonyStyle/command/command_8.php"
,
"file:///var/www/blog/src/vendor/symfony/console/Tests/Fixtures/Style/SymfonyStyle/command/command_7.php"
,
"file:///var/www/blog/src/vendor/symfony/console/Tests/Fixtures/Style/SymfonyStyle/command/command_6.php"
,
"file:///var/www/blog/src/vendor/symfony/console/Tests/Fixtures/Style/SymfonyStyle/command/command_5.php"
,
"file:///var/www/blog/src/vendor/symfony/console/Tests/Fixtures/Style/SymfonyStyle/command/command_4.php"
,
"file:///var/www/blog/src/vendor/symfony/console/Tests/Fixtures/Style/SymfonyStyle/command/command_3.php"
,
"file:///var/www/blog/src/vendor/symfony/console/Tests/Fixtures/Style/SymfonyStyle/command/command_2.php"
,
"file:///var/www/blog/src/vendor/symfony/console/Tests/Fixtures/Style/SymfonyStyle/command/command_1.php"
,
"file:///var/www/blog/src/vendor/laravel/framework/src/Illuminate/Http/Resources/MergeValue.php"
,
"file:///var/www/blog/src/vendor/kris/laravel-form-builder/src/Kris/LaravelFormBuilder/Fields/RepeatedType.php"
,
"file:///var/www/blog/src/vendor/symfony/console/Tests/Fixtures/Style/SymfonyStyle/command/command_0.php"
,
"file:///var/www/blog/src/vendor/symfony/http-kernel/Tests/Fixtures/ExtensionPresentBundle/DependencyInjection/ExtensionPresentExtension.php"
,
"file:///var/www/blog/src/vendor/laravel/framework/src/Illuminate/Cookie/Middleware/AddQueuedCookiesToResponse.php"
,
"file:///var/www/blog/src/vendor/swiftmailer/swiftmailer/tests/unit/Swift/Mime/ContentEncoder/QpContentEncoderTest.php"
,
"file:///var/www/blog/src/vendor/laravel/framework/src/Illuminate/Foundation/Console/UpCommand.php"
,
"file:///var/www/blog/src/vendor/laravel/framework/src/Illuminate/Contracts/View/Factory.php"
,
"file:///var/www/blog/src/vendor/laravel/framework/src/Illuminate/Validation/Rules/Exists.php"
,
"file:///var/www/blog/src/vendor/laravel/framework/src/Illuminate/Support/Facades/Password.php"
,
"file:///var/www/blog/src/vendor/laravel/framework/src/Illuminate/Cache/Console/ClearCommand.php"
,
"file:///var/www/blog/src/vendor/laravel/framework/src/Illuminate/Support/Facades/Validator.php"
,
"file:///var/www/blog/src/vendor/laravel/framework/src/Illuminate/View/Compilers/BladeCompiler.php"
,
"file:///var/www/blog/src/vendor/laravel/framework/src/Illuminate/Foundation/Bootstrap/SetRequestForConsole.php"
,
"file:///var/www/blog/src/vendor/laravel/framework/src/Illuminate/Contracts/Redis/LimiterTimeoutException.php"
,
"file:///var/www/blog/src/vendor/swiftmailer/swiftmailer/lib/classes/Swift/Plugins/Reporters/HtmlReporter.php"
,
"file:///var/www/blog/src/vendor/kris/laravel-form-builder/src/Kris/LaravelFormBuilder/Filters/Collection/HtmlEntities.php"
,
"file:///var/www/blog/src/vendor/mockery/mockery/tests/Mockery/Generator/StringManipulation/Pass/InterfacePassTest.php"
,
"file:///var/www/blog/src/vendor/laravel/framework/src/Illuminate/Foundation/Console/StorageLinkCommand.php"
,
"file:///var/www/blog/src/vendor/laravel/framework/src/Illuminate/Console/Scheduling/ManagesFrequencies.php"
,
"file:///var/www/blog/src/vendor/phpspec/prophecy/src/Prophecy/Exception/Prediction/AggregateException.php"
,
"file:///var/www/blog/src/vendor/laravel/framework/src/Illuminate/Database/Events/TransactionCommitted.php"
,
"file:///var/www/blog/src/vendor/laravel/framework/src/Illuminate/Mail/resources/views/markdown/subcopy.blade.php"
,
"file:///var/www/blog/src/vendor/laravel/framework/src/Illuminate/Redis/Connections/PhpRedisConnection.php"
,
"file:///var/www/blog/src/vendor/laravel/framework/src/Illuminate/Database/Query/JsonExpression.php"
,
"file:///var/www/blog/src/vendor/laravel/framework/src/Illuminate/Foundation/Console/DownCommand.php"
,
"file:///var/www/blog/src/vendor/laravel/framework/src/Illuminate/Database/Eloquent/Relations/MorphTo.php"
,
"file:///var/www/blog/src/vendor/laravel/framework/src/Illuminate/Auth/Access/AuthorizationException.php"
,
"file:///var/www/blog/src/vendor/laravel/framework/src/Illuminate/Foundation/Console/Presets/React.php"
,
"file:///var/www/blog/src/vendor/laravel/framework/src/Illuminate/Database/Capsule/Manager.php"
,
"file:///var/www/blog/src/vendor/laravel/framework/src/Illuminate/View/Middleware/ShareErrorsFromSession.php"
,
"file:///var/www/blog/src/vendor/nikic/php-parser/lib/PhpParser/Node/Expr/BinaryOp/LogicalOr.php"
,
"file:///var/www/blog/src/vendor/laravel/framework/src/Illuminate/Foundation/Bootstrap/RegisterProviders.php"
,
"file:///var/www/blog/src/vendor/laravel/framework/src/Illuminate/Foundation/Console/ProviderMakeCommand.php"
,
"file:///var/www/blog/src/vendor/laravel/framework/src/Illuminate/Contracts/Routing/ResponseFactory.php"
,
"file:///var/www/blog/src/vendor/laravel/framework/src/Illuminate/Session/Middleware/StartSession.php"
,
"file:///var/www/blog/src/vendor/laravel/framework/src/Illuminate/Foundation/Testing/HttpException.php"
,
"file:///var/www/blog/src/vendor/laravel/framework/src/Illuminate/View/Compilers/Compiler.php"
,
"file:///var/www/blog/src/vendor/nikic/php-parser/lib/PhpParser/Node/Expr/BinaryOp/Mul.php"
,
"file:///var/www/blog/src/app/Http/Controllers/UserController.php"
,
"file:///var/www/blog/src/vendor/laravel/framework/src/Illuminate/View/Compilers/Concerns/CompilesComments.php"
,
"file:///var/www/blog/src/vendor/almasaeed2010/adminlte/bower_components/ckeditor/samples/old/assets/posteddata.php"
,
"file:///var/www/blog/src/vendor/kris/laravel-form-builder/src/Kris/LaravelFormBuilder/Fields/SelectType.php"
,
"file:///var/www/blog/src/vendor/laravel/framework/src/Illuminate/Foundation/Events/LocaleUpdated.php"
,
"file:///var/www/blog/src/vendor/laravel/framework/src/Illuminate/Auth/Events/Login.php"
,
"file:///var/www/blog/src/vendor/maximebf/debugbar/src/DebugBar/Bridge/Twig/TraceableTwigTemplate.php"
,
"file:///var/www/blog/src/vendor/nikic/php-parser/lib/PhpParser/Node/Expr/BinaryOp/LogicalXor.php"
,
"file:///var/www/blog/src/vendor/laravel/framework/src/Illuminate/Foundation/Testing/Concerns/InteractsWithRedis.php"
,
"file:///var/www/blog/src/vendor/swiftmailer/swiftmailer/tests/unit/Swift/Plugins/Reporters/HtmlReporterTest.php"
,
"file:///var/www/blog/src/vendor/laravel/framework/src/Illuminate/Database/Console/Migrations/ResetCommand.php"
,
"file:///var/www/blog/src/vendor/laravel/framework/src/Illuminate/Contracts/Filesystem/Filesystem.php"
,
"file:///var/www/blog/src/vendor/laravel/framework/src/Illuminate/Console/Events/CommandFinished.php"
,
"file:///var/www/blog/src/vendor/laravel/framework/src/Illuminate/Contracts/Events/Dispatcher.php"
,
"file:///var/www/blog/src/vendor/laravel/framework/src/Illuminate/Support/Facades/Blade.php"
,
"file:///var/www/blog/src/vendor/laravel/framework/src/Illuminate/Support/Testing/Fakes/MailFake.php"
,
"file:///var/www/blog/src/vendor/laravel/framework/src/Illuminate/Queue/Events/JobFailed.php"
,
"file:///var/www/blog/src/vendor/phpspec/prophecy/src/Prophecy/Exception/Prediction/NoCallsException.php"
,
"file:///var/www/blog/src/vendor/phpspec/prophecy/src/Prophecy/Exception/Prediction/FailedPredictionException.php"
,
"file:///var/www/blog/src/vendor/laravel/framework/src/Illuminate/Database/Schema/Grammars/SQLiteGrammar.php"
,
"file:///var/www/blog/src/vendor/laravel/framework/src/Illuminate/Contracts/Validation/ImplicitRule.php"
,
"file:///var/www/blog/src/vendor/laravel/framework/src/Illuminate/Support/Debug/HtmlDumper.php"
,
"file:///var/www/blog/src/vendor/symfony/http-kernel/Tests/Fixtures/ExtensionLoadedBundle/DependencyInjection/ExtensionLoadedExtension.php"
,
"file:///var/www/blog/src/vendor/laravel/framework/src/Illuminate/Broadcasting/Broadcasters/RedisBroadcaster.php"
,
"file:///var/www/blog/src/vendor/laravel/framework/src/Illuminate/Notifications/Channels/BroadcastChannel.php"
,
"file:///var/www/blog/src/vendor/swiftmailer/swiftmailer/tests/unit/Swift/Mime/Headers/PathHeaderTest.php"
,
"file:///var/www/blog/src/vendor/kris/laravel-form-builder/src/Kris/LaravelFormBuilder/Fields/ChildFormType.php"
,
"file:///var/www/blog/src/vendor/phpspec/prophecy/src/Prophecy/Argument/Token/CallbackToken.php"
,
"file:///var/www/blog/src/vendor/swiftmailer/swiftmailer/tests/acceptance/Swift/KeyCache/ArrayKeyCacheAcceptanceTest.php"
,
"file:///var/www/blog/src/vendor/laravel/framework/src/Illuminate/Mail/resources/views/html/layout.blade.php"
,
"file:///var/www/blog/src/vendor/laravel/framework/src/Illuminate/Contracts/Auth/Access/Gate.php"
,
"file:///var/www/blog/src/vendor/phpdocumentor/reflection-docblock/src/DocBlock/Tags/Formatter/PassthroughFormatter.php"
,
"file:///var/www/blog/src/vendor/phpdocumentor/reflection-docblock/src/DocBlock/Tags/Reference/Url.php"
,
"file:///var/www/blog/src/vendor/laravel/framework/src/Illuminate/Log/Events/MessageLogged.php"
,
"file:///var/www/blog/src/vendor/laravel/framework/src/Illuminate/Contracts/Broadcasting/ShouldBroadcastNow.php"
,
"file:///var/www/blog/src/vendor/laravel/framework/src/Illuminate/Queue/Failed/NullFailedJobProvider.php"
,
"file:///var/www/blog/src/vendor/maximebf/debugbar/src/DebugBar/Bridge/SwiftMailer/SwiftMailCollector.php"
,
"file:///var/www/blog/src/vendor/laravel/framework/src/Illuminate/Contracts/Pipeline/Pipeline.php"
,
"file:///var/www/blog/src/vendor/laravel/framework/src/Illuminate/Foundation/Bus/Dispatchable.php"
,
"file:///var/www/blog/src/vendor/laravel/framework/src/Illuminate/Foundation/Http/Middleware/ConvertEmptyStringsToNull.php"
,
"file:///var/www/blog/src/vendor/phpspec/prophecy/src/Prophecy/Argument/Token/IdenticalValueToken.php"
,
"file:///var/www/blog/src/vendor/laravel/framework/src/Illuminate/Console/Scheduling/CallbackEvent.php"
,
"file:///var/www/blog/src/vendor/laravel/framework/src/Illuminate/Contracts/Cache/LockProvider.php"
,
"file:///var/www/blog/src/vendor/laravel/framework/src/Illuminate/Http/Testing/File.php"
,
"file:///var/www/blog/src/vendor/nikic/php-parser/lib/PhpParser/Node/Expr/AssignOp/Pow.php"
,
"file:///var/www/blog/src/vendor/laravel/framework/src/Illuminate/Foundation/Console/EventMakeCommand.php"
,
"file:///var/www/blog/src/vendor/laravel/framework/src/Illuminate/Http/Resources/MissingValue.php"
,
"file:///var/www/blog/src/vendor/phpspec/prophecy/src/Prophecy/Doubler/Generator/ClassMirror.php"
,
"file:///var/www/blog/src/vendor/laravel/framework/src/Illuminate/Queue/Connectors/SyncConnector.php"
,
"file:///var/www/blog/src/vendor/laravel/framework/src/Illuminate/Support/Facades/Bus.php"
,
"file:///var/www/blog/src/vendor/nikic/php-parser/lib/PhpParser/Node/Expr/BinaryOp/ShiftRight.php"
,
"file:///var/www/blog/src/vendor/swiftmailer/swiftmailer/tests/acceptance/Swift/Mime/ContentEncoder/NativeQpContentEncoderAcceptanceTest.php"
,
"file:///var/www/blog/src/vendor/laravel/framework/src/Illuminate/Cache/Events/KeyWritten.php"
,
"file:///var/www/blog/src/vendor/laravel/framework/src/Illuminate/Foundation/Testing/Concerns/InteractsWithExceptionHandling.php"
,
"file:///var/www/blog/src/vendor/nikic/php-parser/lib/PhpParser/Node/Expr/BinaryOp/SmallerOrEqual.php"
,
"file:///var/www/blog/src/vendor/laravel/framework/src/Illuminate/View/Concerns/ManagesTranslations.php"
,
"file:///var/www/blog/src/vendor/laravel/framework/src/Illuminate/Contracts/Broadcasting/Factory.php"
,
"file:///var/www/blog/src/vendor/laravel/framework/src/Illuminate/Console/Scheduling/CacheMutex.php"
,
"file:///var/www/blog/src/vendor/laravel/framework/src/Illuminate/Database/Query/Grammars/MySqlGrammar.php"
,
"file:///var/www/blog/src/vendor/laravel/framework/src/Illuminate/Queue/Connectors/ConnectorInterface.php"
,
"file:///var/www/blog/src/vendor/laravel/framework/src/Illuminate/Contracts/Pipeline/Hub.php"
,
"file:///var/www/blog/src/vendor/laravel/framework/src/Illuminate/Support/Facades/Config.php"
,
"file:///var/www/blog/src/vendor/laravel/framework/src/Illuminate/Database/Eloquent/Concerns/HasTimestamps.php"
,
"file:///var/www/blog/src/vendor/nikic/php-parser/lib/PhpParser/Node/Expr/AssignOp/Concat.php"
,
"file:///var/www/blog/src/vendor/swiftmailer/swiftmailer/tests/unit/Swift/Transport/EsmtpTransport/ExtensionSupportTest.php"
,
"file:///var/www/blog/src/vendor/laravel/framework/src/Illuminate/Http/Resources/PotentiallyMissing.php"
,
"file:///var/www/blog/src/vendor/swiftmailer/swiftmailer/lib/classes/Swift/Transport/Esmtp/Auth/XOAuth2Authenticator.php"
,
"file:///var/www/blog/src/vendor/laravel/framework/src/Illuminate/Foundation/Console/Kernel.php"
,
"file:///var/www/blog/src/vendor/nikic/php-parser/lib/PhpParser/Node/Expr/Cast/Double.php"
,
"file:///var/www/blog/src/vendor/laravel/framework/src/Illuminate/Database/Concerns/BuildsQueries.php"
,
"file:///var/www/blog/src/vendor/kris/laravel-form-builder/src/Kris/LaravelFormBuilder/Filters/Collection/XSS.php"
,
"file:///var/www/blog/src/vendor/laravel/framework/src/Illuminate/Database/Console/Migrations/MigrateCommand.php"
,
"file:///var/www/blog/src/vendor/laravel/framework/src/Illuminate/Foundation/Console/Presets/None.php"
,
"file:///var/www/blog/src/vendor/laravel/framework/src/Illuminate/Notifications/Messages/SlackMessage.php"
,
"file:///var/www/blog/src/vendor/kris/laravel-form-builder/src/Kris/LaravelFormBuilder/Fields/CollectionType.php"
,
"file:///var/www/blog/src/vendor/laravel/framework/src/Illuminate/Foundation/Testing/RefreshDatabase.php"
,
"file:///var/www/blog/src/vendor/swiftmailer/swiftmailer/lib/classes/Swift/Plugins/Loggers/EchoLogger.php"
,
"file:///var/www/blog/src/vendor/nikic/php-parser/lib/PhpParser/Node/Expr/BinaryOp/Smaller.php"
,
"file:///var/www/blog/src/vendor/laravel/framework/src/Illuminate/Database/Console/Migrations/FreshCommand.php"
,
"file:///var/www/blog/src/vendor/laravel/framework/src/Illuminate/Database/Eloquent/Scope.php"
,
"file:///var/www/blog/src/vendor/laravel/framework/src/Illuminate/Contracts/Queue/QueueableEntity.php"
,
"file:///var/www/blog/src/vendor/symfony/http-foundation/Tests/Session/Storage/Proxy/SessionHandlerProxyTest.php"
,
"file:///var/www/blog/src/vendor/laravel/framework/src/Illuminate/Contracts/Session/Session.php"
,
"file:///var/www/blog/src/vendor/laravel/framework/src/Illuminate/Database/Migrations/Migrator.php"
,
"file:///var/www/blog/src/vendor/laravel/framework/src/Illuminate/Broadcasting/Broadcasters/NullBroadcaster.php"
,
"file:///var/www/blog/src/vendor/laravel/framework/src/Illuminate/Support/Facades/Log.php"
,
"file:///var/www/blog/src/vendor/laravel/framework/src/Illuminate/Foundation/Console/RouteListCommand.php"
,
"file:///var/www/blog/src/vendor/laravel/framework/src/Illuminate/Contracts/Filesystem/FileNotFoundException.php"
,
"file:///var/www/blog/src/vendor/laravel/framework/src/Illuminate/Database/Eloquent/Concerns/HidesAttributes.php"
,
"file:///var/www/blog/src/vendor/laravel/framework/src/Illuminate/Queue/Jobs/DatabaseJobRecord.php"
,
"file:///var/www/blog/src/vendor/laravel/framework/src/Illuminate/Support/Testing/Fakes/BusFake.php"
,
"file:///var/www/blog/src/vendor/laravel/framework/src/Illuminate/Database/Query/Processors/MySqlProcessor.php"
,
"file:///var/www/blog/src/vendor/laravel/framework/src/Illuminate/Foundation/Providers/FormRequestServiceProvider.php"
,
"file:///var/www/blog/src/vendor/nikic/php-parser/lib/PhpParser/Node/Expr/BinaryOp/Div.php"
,
"file:///var/www/blog/src/vendor/laravel/framework/src/Illuminate/Http/Exceptions/PostTooLargeException.php"
,
"file:///var/www/blog/src/vendor/laravel/framework/src/Illuminate/Support/Testing/Fakes/QueueFake.php"
,
"file:///var/www/blog/src/vendor/laravel/framework/src/Illuminate/Database/Migrations/Migration.php"
,
"file:///var/www/blog/src/vendor/laravel/framework/src/Illuminate/Support/Facades/Crypt.php"
,
"file:///var/www/blog/src/vendor/symfony/http-foundation/Tests/Session/Storage/Handler/StrictSessionHandlerTest.php"
,
"file:///var/www/blog/src/vendor/symfony/http-foundation/Tests/Session/Storage/Proxy/NativeProxyTest.php"
,
"file:///var/www/blog/src/vendor/laravel/framework/src/Illuminate/Queue/Console/ForgetFailedCommand.php"
,
"file:///var/www/blog/src/vendor/laravel/framework/src/Illuminate/Foundation/Console/ModelMakeCommand.php"
,
"file:///var/www/blog/src/vendor/swiftmailer/swiftmailer/tests/acceptance/Swift/Encoder/QpEncoderAcceptanceTest.php"
,
"file:///var/www/blog/src/vendor/laravel/framework/src/Illuminate/Mail/resources/views/markdown/layout.blade.php"
,
"file:///var/www/blog/src/vendor/phpspec/prophecy/src/Prophecy/Doubler/ClassPatch/TraversablePatch.php"
,
"file:///var/www/blog/src/vendor/laravel/framework/src/Illuminate/Mail/Events/MessageSent.php"
,
"file:///var/www/blog/src/vendor/laravel/framework/src/Illuminate/Routing/Matching/ValidatorInterface.php"
,
"file:///var/www/blog/src/vendor/laravel/framework/src/Illuminate/Notifications/Messages/SimpleMessage.php"
,
"file:///var/www/blog/src/vendor/laravel/framework/src/Illuminate/Database/Migrations/MigrationCreator.php"
,
"file:///var/www/blog/src/vendor/nikic/php-parser/lib/PhpParser/Node/Expr/Cast/Int_.php"
,
"file:///var/www/blog/src/vendor/kris/laravel-form-builder/src/Kris/LaravelFormBuilder/Fields/ParentType.php"
,
"file:///var/www/blog/src/vendor/laravel/framework/src/Illuminate/Contracts/Cache/Factory.php"
,
"file:///var/www/blog/src/vendor/maximebf/debugbar/src/DebugBar/DataCollector/PDO/TraceablePDOStatement.php"
,
"file:///var/www/blog/src/vendor/laravel/framework/src/Illuminate/Contracts/Routing/Registrar.php"
,
"file:///var/www/blog/src/vendor/laravel/framework/src/Illuminate/Cache/Events/CacheEvent.php"
,
"file:///var/www/blog/src/vendor/laravel/framework/src/Illuminate/Redis/Connections/PhpRedisClusterConnection.php"
,
"file:///var/www/blog/src/vendor/laravel/framework/src/Illuminate/Auth/Notifications/ResetPassword.php"
,
"file:///var/www/blog/src/vendor/laravel/framework/src/Illuminate/Http/Concerns/InteractsWithContentTypes.php"
,
"file:///var/www/blog/src/vendor/laravel/framework/src/Illuminate/Redis/Limiters/DurationLimiter.php"
,
"file:///var/www/blog/src/vendor/laravel/framework/src/Illuminate/Queue/Jobs/Job.php"
,
"file:///var/www/blog/src/vendor/laravel/framework/src/Illuminate/View/Concerns/ManagesLoops.php"
,
"file:///var/www/blog/src/vendor/phpspec/prophecy/src/Prophecy/Doubler/ClassPatch/KeywordPatch.php"
,
"file:///var/www/blog/src/vendor/phpdocumentor/reflection-docblock/src/DocBlock/Tags/Formatter/AlignFormatter.php"
,
"file:///var/www/blog/src/vendor/laravel/framework/src/Illuminate/Support/Facades/Broadcast.php"
,
"file:///var/www/blog/src/vendor/symfony/http-foundation/Tests/Session/Storage/Handler/Fixtures/with_cookie_and_session.php"
,
"file:///var/www/blog/src/vendor/kris/laravel-form-builder/src/Kris/LaravelFormBuilder/Fields/TextareaType.php"
,
"file:///var/www/blog/src/vendor/mockery/mockery/library/Mockery/Generator/StringManipulation/Pass/ClassPass.php"
,
"file:///var/www/blog/src/vendor/phpspec/prophecy/src/Prophecy/Exception/Doubler/ReturnByReferenceException.php"
,
"file:///var/www/blog/src/vendor/laravel/framework/src/Illuminate/Queue/Console/WorkCommand.php"
,
"file:///var/www/blog/src/vendor/nikic/php-parser/lib/PhpParser/Node/Stmt/TraitUseAdaptation/Precedence.php"
,
"file:///var/www/blog/src/vendor/laravel/framework/src/Illuminate/Database/Concerns/ManagesTransactions.php"
,
"file:///var/www/blog/src/vendor/laravel/framework/src/Illuminate/Http/Resources/Json/ResourceResponse.php"
,
"file:///var/www/blog/src/vendor/symfony/http-foundation/Tests/Session/Storage/Handler/MongoDbSessionHandlerTest.php"
,
"file:///var/www/blog/src/vendor/laravel/framework/src/Illuminate/View/Compilers/Concerns/CompilesAuthorizations.php"
,
"file:///var/www/blog/src/vendor/swiftmailer/swiftmailer/tests/acceptance/Swift/Transport/StreamBuffer/ProcessAcceptanceTest.php"
,
"file:///var/www/blog/src/vendor/laravel/framework/src/Illuminate/Auth/Events/Logout.php"
,
"file:///var/www/blog/src/vendor/laravel/framework/src/Illuminate/Database/Eloquent/Relations/MorphOne.php"
,
"file:///var/www/blog/src/vendor/laravel/framework/src/Illuminate/Foundation/Testing/TestResponse.php"
,
"file:///var/www/blog/src/vendor/laravel/framework/src/Illuminate/Cache/Console/CacheTableCommand.php"
,
"file:///var/www/blog/src/vendor/laravel/framework/src/Illuminate/Support/Facades/Queue.php"
,
"file:///var/www/blog/src/vendor/laravel/framework/src/Illuminate/Mail/resources/views/html/panel.blade.php"
,
"file:///var/www/blog/src/vendor/laravel/framework/src/Illuminate/Database/Eloquent/Concerns/HasGlobalScopes.php"
,
"file:///var/www/blog/src/vendor/laravel/framework/src/Illuminate/Queue/Console/FailedTableCommand.php"
,
"file:///var/www/blog/src/vendor/laravel/framework/src/Illuminate/Database/Connectors/PostgresConnector.php"
,
"file:///var/www/blog/src/vendor/laravel/framework/src/Illuminate/Mail/resources/views/markdown/panel.blade.php"
,
"file:///var/www/blog/src/vendor/laravel/framework/src/Illuminate/Support/Facades/Input.php"
,
"file:///var/www/blog/src/vendor/laravel/framework/src/Illuminate/Contracts/Auth/Guard.php"
,
"file:///var/www/blog/src/vendor/laravel/framework/src/Illuminate/Support/Facades/Redis.php"
,
"file:///var/www/blog/src/vendor/laravel/framework/src/Illuminate/Foundation/Auth/SendsPasswordResetEmails.php"
,
"file:///var/www/blog/src/vendor/laravel/framework/src/Illuminate/Cookie/Middleware/EncryptCookies.php"
,
"file:///var/www/blog/src/vendor/laravel/framework/src/Illuminate/Database/Query/Processors/SqlServerProcessor.php"
,
"file:///var/www/blog/src/vendor/phpspec/prophecy/src/Prophecy/Exception/Doubler/ClassNotFoundException.php"
,
"file:///var/www/blog/src/vendor/nikic/php-parser/lib/PhpParser/Node/Stmt/TraitUseAdaptation/Alias.php"
,
"file:///var/www/blog/src/vendor/laravel/framework/src/Illuminate/Database/Eloquent/Collection.php"
,
"file:///var/www/blog/src/vendor/nikic/php-parser/lib/PhpParser/Node/Scalar/MagicConst/Trait_.php"
,
"file:///var/www/blog/src/vendor/laravel/framework/src/Illuminate/Foundation/Testing/RefreshDatabaseState.php"
,
"file:///var/www/blog/src/vendor/laravel/framework/src/Illuminate/Foundation/Testing/Constraints/SoftDeletedInDatabase.php"
,
"file:///var/www/blog/src/vendor/laravel/framework/src/Illuminate/View/Concerns/ManagesLayouts.php"
,
"file:///var/www/blog/src/vendor/laravel/framework/src/Illuminate/Foundation/Exceptions/views/layout.blade.php"
,
"file:///var/www/blog/src/vendor/swiftmailer/swiftmailer/tests/unit/Swift/Transport/Esmtp/Auth/PlainAuthenticatorTest.php"
,
"file:///var/www/blog/src/vendor/laravel/framework/src/Illuminate/Contracts/Translation/Translator.php"
,
"file:///var/www/blog/src/vendor/swiftmailer/swiftmailer/tests/acceptance/Swift/Mime/EmbeddedFileAcceptanceTest.php"
,
"file:///var/www/blog/src/vendor/laravel/framework/src/Illuminate/Pagination/resources/views/simple-bootstrap-4.blade.php"
,
"file:///var/www/blog/src/vendor/laravel/framework/src/Illuminate/Foundation/Console/ConsoleMakeCommand.php"
,
"file:///var/www/blog/src/vendor/laravel/framework/src/Illuminate/Http/Exceptions/HttpResponseException.php"
,
"file:///var/www/blog/src/vendor/laravel/framework/src/Illuminate/Foundation/Http/Middleware/VerifyCsrfToken.php"
,
"file:///var/www/blog/src/vendor/laravel/framework/src/Illuminate/Validation/Rules/Dimensions.php"
,
"file:///var/www/blog/src/vendor/kris/laravel-form-builder/src/Kris/LaravelFormBuilder/Facades/FormBuilder.php"
,
"file:///var/www/blog/src/vendor/laravel/framework/src/Illuminate/Console/Events/CommandStarting.php"
,
"file:///var/www/blog/src/vendor/laravel/framework/src/Illuminate/Database/Eloquent/Model.php"
,
"file:///var/www/blog/src/vendor/laravel/framework/src/Illuminate/Foundation/Console/Presets/Bootstrap.php"
,
"file:///var/www/blog/src/vendor/laravel/framework/src/Illuminate/View/Compilers/Concerns/CompilesLayouts.php"
,
"file:///var/www/blog/src/vendor/symfony/http-foundation/Tests/Session/Storage/Proxy/AbstractProxyTest.php"
,
"file:///var/www/blog/src/vendor/laravel/framework/src/Illuminate/Contracts/Queue/EntityNotFoundException.php"
,
"file:///var/www/blog/src/vendor/laravel/framework/src/Illuminate/Database/Console/Seeds/SeedCommand.php"
,
"file:///var/www/blog/src/vendor/symfony/http-foundation/Tests/Session/Storage/Handler/Fixtures/regenerate.php"
,
"file:///var/www/blog/src/vendor/nikic/php-parser/lib/PhpParser/Node/Expr/BinaryOp/Concat.php"
,
"file:///var/www/blog/src/vendor/phpspec/prophecy/src/Prophecy/Exception/Doubler/DoubleException.php"
,
"file:///var/www/blog/src/vendor/laravel/framework/src/Illuminate/Auth/Access/HandlesAuthorization.php"
,
"file:///var/www/blog/src/vendor/laravel/framework/src/Illuminate/Mail/resources/views/html/promotion.blade.php"
,
"file:///var/www/blog/src/vendor/laravel/framework/src/Illuminate/Auth/Console/ClearResetsCommand.php"
,
"file:///var/www/blog/src/vendor/nikic/php-parser/lib/PhpParser/Node/Expr/BinaryOp/Coalesce.php"
,
"file:///var/www/blog/src/vendor/laravel/framework/src/Illuminate/Foundation/Exceptions/views/503.blade.php"
,
"file:///var/www/blog/src/vendor/laravel/framework/src/Illuminate/Session/Middleware/AuthenticateSession.php"
,
"file:///var/www/blog/src/vendor/swiftmailer/swiftmailer/lib/classes/Swift/Mime/Headers/ParameterizedHeader.php"
,
"file:///var/www/blog/src/vendor/laravel/framework/src/Illuminate/Queue/Jobs/SyncJob.php"
,
"file:///var/www/blog/src/vendor/laravel/framework/src/Illuminate/Notifications/Events/NotificationFailed.php"
,
"file:///var/www/blog/src/vendor/laravel/framework/src/Illuminate/Mail/Transport/ArrayTransport.php"
,
"file:///var/www/blog/src/vendor/laravel/framework/src/Illuminate/Foundation/Http/FormRequest.php"
,
"file:///var/www/blog/src/vendor/laravel/framework/src/Illuminate/View/Compilers/Concerns/CompilesConditionals.php"
,
"file:///var/www/blog/src/vendor/laravel/framework/src/Illuminate/Support/Facades/Facade.php"
,
"file:///var/www/blog/src/vendor/laravel/framework/src/Illuminate/Foundation/Console/Presets/Vue.php"
,
"file:///var/www/blog/src/vendor/laravel/framework/src/Illuminate/Auth/Events/Registered.php"
,
"file:///var/www/blog/src/vendor/laravel/framework/src/Illuminate/Foundation/Http/Exceptions/MaintenanceModeException.php"
,
"file:///var/www/blog/src/vendor/nikic/php-parser/lib/PhpParser/Node/Scalar/MagicConst/Dir.php"
,
"file:///var/www/blog/src/vendor/laravel/framework/src/Illuminate/Routing/Console/ControllerMakeCommand.php"
,
"file:///var/www/blog/src/vendor/symfony/http-foundation/Tests/Session/Storage/Handler/PdoSessionHandlerTest.php"
,
"file:///var/www/blog/src/vendor/nikic/php-parser/lib/PhpParser/Node/Expr/BinaryOp/GreaterOrEqual.php"
,
"file:///var/www/blog/src/vendor/laravel/framework/src/Illuminate/Routing/Middleware/ThrottleRequestsWithRedis.php"
,
"file:///var/www/blog/src/vendor/laravel/framework/src/Illuminate/Foundation/Auth/RegistersUsers.php"
,
"file:///var/www/blog/src/vendor/laravel/framework/src/Illuminate/Support/Facades/Gate.php"
,
"file:///var/www/blog/src/vendor/laravel/framework/src/Illuminate/View/Engines/PhpEngine.php"
,
"file:///var/www/blog/src/vendor/symfony/http-foundation/Tests/Session/Storage/Handler/MemcacheSessionHandlerTest.php"
,
"file:///var/www/blog/src/vendor/mockery/mockery/library/Mockery/Generator/StringManipulation/Pass/InstanceMockPass.php"
,
"file:///var/www/blog/src/vendor/swiftmailer/swiftmailer/tests/unit/Swift/Transport/Esmtp/Auth/CramMd5AuthenticatorTest.php"
,
"file:///var/www/blog/src/vendor/laravel/framework/src/Illuminate/Contracts/Support/Htmlable.php"
,
"file:///var/www/blog/src/vendor/nikic/php-parser/lib/PhpParser/Node/Expr/BinaryOp/NotEqual.php"
,
"file:///var/www/blog/src/vendor/nikic/php-parser/lib/PhpParser/Node/Expr/BinaryOp/BooleanAnd.php"
,
"file:///var/www/blog/src/vendor/laravel/framework/src/Illuminate/Database/Eloquent/Relations/Concerns/InteractsWithPivotTable.php"
,
"file:///var/www/blog/src/vendor/laravel/framework/src/Illuminate/Routing/Matching/SchemeValidator.php"
,
"file:///var/www/blog/src/vendor/laravel/framework/src/Illuminate/Auth/Passwords/PasswordBroker.php"
,
"file:///var/www/blog/src/vendor/laravel/framework/src/Illuminate/Mail/Events/MessageSending.php"
,
"file:///var/www/blog/src/vendor/symfony/http-kernel/Tests/Fixtures/ExtensionPresentBundle/Command/FooCommand.php"
,
"file:///var/www/blog/src/vendor/kris/laravel-form-builder/src/Kris/LaravelFormBuilder/Fields/StaticType.php"
,
"file:///var/www/blog/src/vendor/swiftmailer/swiftmailer/lib/classes/Swift/Mime/ContentEncoder/RawContentEncoder.php"
,
"file:///var/www/blog/src/vendor/phpspec/prophecy/src/Prophecy/Argument/Token/ArrayEntryToken.php"
,
"file:///var/www/blog/src/vendor/laravel/framework/src/Illuminate/Support/Facades/Lang.php"
,
"file:///var/www/blog/src/vendor/laravel/framework/src/Illuminate/Foundation/Http/Kernel.php"
,
"file:///var/www/blog/src/vendor/laravel/framework/src/Illuminate/Foundation/Bootstrap/HandleExceptions.php"
,
"file:///var/www/blog/src/vendor/laravel/framework/src/Illuminate/Database/Schema/Grammars/ChangeColumn.php"
,
"file:///var/www/blog/src/vendor/laravel/framework/src/Illuminate/Database/Eloquent/SoftDeletingScope.php"
,
"file:///var/www/blog/src/vendor/laravel/framework/src/Illuminate/Database/Schema/SQLiteBuilder.php"
,
"file:///var/www/blog/src/vendor/laravel/framework/src/Illuminate/Foundation/Bootstrap/BootProviders.php"
,
"file:///var/www/blog/src/vendor/nikic/php-parser/lib/PhpParser/Node/Scalar/MagicConst/Namespace_.php"
,
"file:///var/www/blog/src/vendor/nikic/php-parser/lib/PhpParser/Node/Expr/BinaryOp/LogicalAnd.php"
,
"file:///var/www/blog/src/vendor/laravel/framework/src/Illuminate/Foundation/Http/Middleware/TransformsRequest.php"
,
"file:///var/www/blog/src/vendor/laravel/framework/src/Illuminate/Validation/Concerns/ReplacesAttributes.php"
,
"file:///var/www/blog/src/vendor/laravel/framework/src/Illuminate/Broadcasting/Broadcasters/LogBroadcaster.php"
,
"file:///var/www/blog/src/vendor/laravel/framework/src/Illuminate/Notifications/Channels/DatabaseChannel.php"
,
"file:///var/www/blog/src/vendor/laravel/framework/src/Illuminate/Foundation/Console/EventGenerateCommand.php"
,
"file:///var/www/blog/src/vendor/laravel/framework/src/Illuminate/Cache/Events/KeyForgotten.php"
,
"file:///var/www/blog/src/vendor/symfony/http-foundation/Tests/Session/Storage/Handler/WriteCheckSessionHandlerTest.php"
,
"file:///var/www/blog/src/vendor/swiftmailer/swiftmailer/tests/unit/Swift/Mime/ContentEncoder/PlainContentEncoderTest.php"
,
"file:///var/www/blog/src/vendor/laravel/framework/src/Illuminate/Console/Scheduling/Schedule.php"
,
"file:///var/www/blog/src/vendor/laravel/framework/src/Illuminate/Mail/resources/views/markdown/message.blade.php"
,
"file:///var/www/blog/src/vendor/mockery/mockery/library/Mockery/Generator/StringManipulation/Pass/TraitPass.php"
,
"file:///var/www/blog/src/vendor/laravel/framework/src/Illuminate/Notifications/resources/views/email.blade.php"
,
"file:///var/www/blog/src/vendor/nikic/php-parser/lib/PhpParser/Node/Expr/BinaryOp/Spaceship.php"
,
"file:///var/www/blog/src/vendor/phpspec/prophecy/src/Prophecy/Doubler/ClassPatch/SplFileInfoPatch.php"
,
"file:///var/www/blog/src/vendor/laravel/framework/src/Illuminate/Routing/Middleware/ThrottleRequests.php"
,
"file:///var/www/blog/src/vendor/swiftmailer/swiftmailer/lib/classes/Swift/Mime/ContentEncoder/QpContentEncoder.php"
,
"file:///var/www/blog/src/vendor/laravel/framework/src/Illuminate/Contracts/Auth/UserProvider.php"
,
"file:///var/www/blog/src/vendor/laravel/framework/src/Illuminate/Contracts/Queue/EntityResolver.php"
,
"file:///var/www/blog/src/vendor/laravel/framework/src/Illuminate/Contracts/Routing/UrlRoutable.php"
,
"file:///var/www/blog/src/vendor/phpdocumentor/reflection-docblock/src/DocBlock/Tags/Factory/StaticMethod.php"
,
"file:///var/www/blog/src/vendor/symfony/http-foundation/Tests/Session/Storage/Handler/Fixtures/empty_destroys.php"
,
"file:///var/www/blog/src/vendor/phpspec/prophecy/src/Prophecy/Argument/Token/ArrayCountToken.php"
,
"file:///var/www/blog/src/vendor/laravel/framework/src/Illuminate/Auth/Console/AuthMakeCommand.php"
,
"file:///var/www/blog/src/vendor/laravel/framework/src/Illuminate/Console/Scheduling/Event.php"
,
"file:///var/www/blog/src/vendor/maximebf/debugbar/src/DebugBar/DataFormatter/VarDumper/SeekingData.php"
,
"file:///var/www/blog/src/vendor/laravel/framework/src/Illuminate/Foundation/Testing/Concerns/InteractsWithConsole.php"
,
"file:///var/www/blog/src/vendor/phpspec/prophecy/src/Prophecy/Doubler/ClassPatch/ProphecySubjectPatch.php"
,
"file:///var/www/blog/src/vendor/laravel/framework/src/Illuminate/Foundation/Testing/WithFaker.php"
,
"file:///var/www/blog/src/vendor/laravel/framework/src/Illuminate/Database/Eloquent/Relations/HasMany.php"
,
"file:///var/www/blog/src/vendor/laravel/framework/src/Illuminate/Contracts/Notifications/Factory.php"
,
"file:///var/www/blog/src/vendor/laravel/framework/src/Illuminate/Database/Query/Grammars/Grammar.php"
,
"file:///var/www/blog/src/vendor/laravel/framework/src/Illuminate/Database/Query/Grammars/PostgresGrammar.php"
,
"file:///var/www/blog/src/vendor/laravel/framework/src/Illuminate/Database/Eloquent/ModelNotFoundException.php"
,
"file:///var/www/blog/src/vendor/phpspec/prophecy/src/Prophecy/Argument/Token/TypeToken.php"
,
"file:///var/www/blog/src/vendor/laravel/framework/src/Illuminate/Notifications/Channels/NexmoSmsChannel.php"
,
"file:///var/www/blog/src/vendor/symfony/http-foundation/Tests/Session/Storage/Handler/Fixtures/storage.php"
,
"file:///var/www/blog/src/vendor/laravel/framework/src/Illuminate/Foundation/Console/RouteClearCommand.php"
,
"file:///var/www/blog/src/vendor/laravel/framework/src/Illuminate/Foundation/Testing/DatabaseTransactions.php"
,
"file:///var/www/blog/src/vendor/swiftmailer/swiftmailer/lib/classes/Swift/Transport/Esmtp/Auth/PlainAuthenticator.php"
,
"file:///var/www/blog/src/vendor/swiftmailer/swiftmailer/tests/unit/Swift/Mime/HeaderEncoder/Base64HeaderEncoderTest.php"
,
"file:///var/www/blog/src/vendor/laravel/framework/src/Illuminate/Foundation/Support/Providers/AuthServiceProvider.php"
,
"file:///var/www/blog/src/vendor/phpspec/prophecy/src/Prophecy/Doubler/ClassPatch/HhvmExceptionPatch.php"
,
"file:///var/www/blog/src/vendor/swiftmailer/swiftmailer/lib/classes/Swift/Mime/Headers/PathHeader.php"
,
"file:///var/www/blog/src/vendor/laravel/framework/src/Illuminate/Http/Resources/CollectsResources.php"
,
"file:///var/www/blog/src/vendor/laravel/framework/src/Illuminate/Contracts/View/Engine.php"
,
"file:///var/www/blog/src/vendor/maximebf/debugbar/src/DebugBar/Bridge/Twig/TimeableTwigExtensionProfiler.php"
,
"file:///var/www/blog/src/vendor/swiftmailer/swiftmailer/tests/unit/Swift/Transport/Esmtp/Auth/NTLMAuthenticatorTest.php"
,
"file:///var/www/blog/src/vendor/swiftmailer/swiftmailer/tests/acceptance/Swift/Mime/SimpleMessageAcceptanceTest.php"
,
"file:///var/www/blog/src/vendor/laravel/framework/src/Illuminate/Database/Console/Migrations/RollbackCommand.php"
,
"file:///var/www/blog/src/vendor/laravel/framework/src/Illuminate/Routing/Matching/HostValidator.php"
,
"file:///var/www/blog/src/vendor/laravel/framework/src/Illuminate/Routing/Matching/MethodValidator.php"
,
"file:///var/www/blog/src/vendor/swiftmailer/swiftmailer/tests/unit/Swift/Plugins/Loggers/ArrayLoggerTest.php"
,
"file:///var/www/blog/src/vendor/laravel/framework/src/Illuminate/Redis/Limiters/DurationLimiterBuilder.php"
,
"file:///var/www/blog/src/vendor/laravel/framework/src/Illuminate/View/Concerns/ManagesComponents.php"
,
"file:///var/www/blog/src/vendor/swiftmailer/swiftmailer/lib/classes/Swift/Mime/HeaderEncoder/QpHeaderEncoder.php"
,
"file:///var/www/blog/src/vendor/swiftmailer/swiftmailer/lib/classes/Swift/Plugins/Reporters/HitReporter.php"
,
"file:///var/www/blog/src/vendor/nikic/php-parser/lib/PhpParser/Node/Scalar/MagicConst/Line.php"
,
"file:///var/www/blog/src/vendor/kris/laravel-form-builder/src/Kris/LaravelFormBuilder/Filters/Exception/InvalidInstanceException.php"
,
"file:///var/www/blog/src/vendor/laravel/framework/src/Illuminate/Support/Testing/Fakes/EventFake.php"
,
"file:///var/www/blog/src/vendor/laravel/framework/src/Illuminate/Console/Scheduling/CommandBuilder.php"
,
"file:///var/www/blog/src/vendor/laravel/framework/src/Illuminate/Database/Console/Factories/FactoryMakeCommand.php"
,
"file:///var/www/blog/src/vendor/laravel/framework/src/Illuminate/Notifications/Events/BroadcastNotificationCreated.php"
,
"file:///var/www/blog/src/vendor/nikic/php-parser/lib/PhpParser/Node/Expr/Cast/Bool_.php"
,
"file:///var/www/blog/src/vendor/laravel/framework/src/Illuminate/Foundation/Console/ClearCompiledCommand.php"
,
"file:///var/www/blog/src/vendor/laravel/framework/src/Illuminate/Contracts/Routing/BindingRegistrar.php"
,
"file:///var/www/blog/src/vendor/laravel/framework/src/Illuminate/Database/Eloquent/Relations/Pivot.php"
,
"file:///var/www/blog/src/vendor/swiftmailer/swiftmailer/tests/acceptance/Swift/KeyCache/DiskKeyCacheAcceptanceTest.php"
,
"file:///var/www/blog/src/vendor/laravel/framework/src/Illuminate/Foundation/Console/ConfigClearCommand.php"
,
"file:///var/www/blog/src/vendor/laravel/framework/src/Illuminate/Database/Eloquent/Relations/HasManyThrough.php"
,
"file:///var/www/blog/src/vendor/maximebf/debugbar/src/DebugBar/DataCollector/PDO/TraceablePDO.php"
,
"file:///var/www/blog/src/vendor/symfony/http-foundation/Tests/Session/Storage/Handler/NullSessionHandlerTest.php"
,
"file:///var/www/blog/src/vendor/laravel/framework/src/Illuminate/Queue/Events/Looping.php"
,
"file:///var/www/blog/src/vendor/laravel/framework/src/Illuminate/Contracts/Config/Repository.php"
,
"file:///var/www/blog/src/vendor/kris/laravel-form-builder/src/Kris/LaravelFormBuilder/Console/FormGenerator.php"
,
"file:///var/www/blog/src/vendor/laravel/framework/src/Illuminate/Notifications/Messages/BroadcastMessage.php"
,
"file:///var/www/blog/src/vendor/laravel/framework/src/Illuminate/View/Compilers/Concerns/CompilesIncludes.php"
,
"file:///var/www/blog/src/vendor/laravel/framework/src/Illuminate/Database/Eloquent/RelationNotFoundException.php"
,
"file:///var/www/blog/src/vendor/laravel/framework/src/Illuminate/Contracts/Support/Renderable.php"
,
"file:///var/www/blog/src/vendor/laravel/framework/src/Illuminate/Database/Connectors/Connector.php"
,
"file:///var/www/blog/src/vendor/symfony/http-foundation/Tests/Session/Storage/Handler/MemcachedSessionHandlerTest.php"
,
"file:///var/www/blog/src/vendor/laravel/framework/src/Illuminate/Support/Facades/DB.php"
,
"file:///var/www/blog/src/vendor/laravel/framework/src/Illuminate/Auth/Events/Lockout.php"
,
"file:///var/www/blog/src/vendor/laravel/framework/src/Illuminate/Database/Connectors/ConnectorInterface.php"
]
